<?xml version="1.0" encoding="UTF-8"?>
<dia:diagram xmlns:dia="http://www.lysator.liu.se/~alla/dia/">
  <dia:diagramdata>
    <dia:attribute name="background">
      <dia:color val="#ffffffff"/>
    </dia:attribute>
    <dia:attribute name="pagebreak">
      <dia:color val="#000099ff"/>
    </dia:attribute>
    <dia:attribute name="paper">
      <dia:composite type="paper">
        <dia:attribute name="name">
          <dia:string>#A3#</dia:string>
        </dia:attribute>
        <dia:attribute name="tmargin">
          <dia:real val="2.8222000598907471"/>
        </dia:attribute>
        <dia:attribute name="bmargin">
          <dia:real val="2.8222000598907471"/>
        </dia:attribute>
        <dia:attribute name="lmargin">
          <dia:real val="2.8222000598907471"/>
        </dia:attribute>
        <dia:attribute name="rmargin">
          <dia:real val="2.8222000598907471"/>
        </dia:attribute>
        <dia:attribute name="is_portrait">
          <dia:boolean val="false"/>
        </dia:attribute>
        <dia:attribute name="scaling">
          <dia:real val="1"/>
        </dia:attribute>
        <dia:attribute name="fitto">
          <dia:boolean val="false"/>
        </dia:attribute>
      </dia:composite>
    </dia:attribute>
    <dia:attribute name="grid">
      <dia:composite type="grid">
        <dia:attribute name="dynamic">
          <dia:boolean val="true"/>
        </dia:attribute>
        <dia:attribute name="width_x">
          <dia:real val="1"/>
        </dia:attribute>
        <dia:attribute name="width_y">
          <dia:real val="1"/>
        </dia:attribute>
        <dia:attribute name="visible_x">
          <dia:int val="1"/>
        </dia:attribute>
        <dia:attribute name="visible_y">
          <dia:int val="1"/>
        </dia:attribute>
        <dia:composite type="color"/>
      </dia:composite>
    </dia:attribute>
    <dia:attribute name="color">
      <dia:color val="#d8e5e5ff"/>
    </dia:attribute>
    <dia:attribute name="guides">
      <dia:composite type="guides">
        <dia:attribute name="hguides"/>
        <dia:attribute name="vguides"/>
      </dia:composite>
    </dia:attribute>
    <dia:attribute name="display">
      <dia:composite type="display">
        <dia:attribute name="antialiased">
          <dia:boolean val="false"/>
        </dia:attribute>
        <dia:attribute name="snap-to-grid">
          <dia:boolean val="true"/>
        </dia:attribute>
        <dia:attribute name="snap-to-object">
          <dia:boolean val="true"/>
        </dia:attribute>
        <dia:attribute name="show-grid">
          <dia:boolean val="true"/>
        </dia:attribute>
        <dia:attribute name="show-connection-points">
          <dia:boolean val="true"/>
        </dia:attribute>
      </dia:composite>
    </dia:attribute>
  </dia:diagramdata>
  <dia:layer name="Background" visible="true" connectable="true" active="true">
    <dia:object type="Flowchart - Box" version="0" id="O0">
      <dia:attribute name="obj_pos">
        <dia:point val="10,10"/>
      </dia:attribute>
      <dia:attribute name="obj_bb">
        <dia:rectangle val="9.95,9.95;14.05,13.05"/>
      </dia:attribute>
      <dia:attribute name="elem_corner">
        <dia:point val="10,10"/>
      </dia:attribute>
      <dia:attribute name="elem_width">
        <dia:real val="4"/>
      </dia:attribute>
      <dia:attribute name="elem_height">
        <dia:real val="3"/>
      </dia:attribute>
      <dia:attribute name="show_background">
        <dia:boolean val="true"/>
      </dia:attribute>
      <dia:attribute name="padding">
        <dia:real val="0.5"/>
      </dia:attribute>
      <dia:attribute name="text">
        <dia:composite type="text">
          <dia:attribute name="string">
            <dia:string>#On the
Street#</dia:string>
          </dia:attribute>
          <dia:attribute name="font">
            <dia:font family="sans" style="0" name="Helvetica"/>
          </dia:attribute>
          <dia:attribute name="height">
            <dia:real val="0.63499997556209564"/>
          </dia:attribute>
          <dia:attribute name="pos">
            <dia:point val="12,11.3375"/>
          </dia:attribute>
          <dia:attribute name="color">
            <dia:color val="#000000ff"/>
          </dia:attribute>
          <dia:attribute name="alignment">
            <dia:enum val="1"/>
          </dia:attribute>
        </dia:composite>
      </dia:attribute>
    </dia:object>
  </dia:layer>
</dia:diagram>
