<?xml version="1.0" encoding="UTF-8"?>
<dia:diagram xmlns:dia="http://www.lysator.liu.se/~alla/dia/">
  <dia:diagramdata>
    <dia:attribute name="background">
      <dia:color val="#ffffffff"/>
    </dia:attribute>
    <dia:attribute name="pagebreak">
      <dia:color val="#000099ff"/>
    </dia:attribute>
    <dia:attribute name="paper">
      <dia:composite type="paper">
        <dia:attribute name="name">
          <dia:string>#A3#</dia:string>
        </dia:attribute>
        <dia:attribute name="tmargin">
          <dia:real val="2.8222000598907471"/>
        </dia:attribute>
        <dia:attribute name="bmargin">
          <dia:real val="2.8222000598907471"/>
        </dia:attribute>
        <dia:attribute name="lmargin">
          <dia:real val="2.8222000598907471"/>
        </dia:attribute>
        <dia:attribute name="rmargin">
          <dia:real val="2.8222000598907471"/>
        </dia:attribute>
        <dia:attribute name="is_portrait">
          <dia:boolean val="false"/>
        </dia:attribute>
        <dia:attribute name="scaling">
          <dia:real val="1"/>
        </dia:attribute>
        <dia:attribute name="fitto">
          <dia:boolean val="false"/>
        </dia:attribute>
      </dia:composite>
    </dia:attribute>
    <dia:attribute name="grid">
      <dia:composite type="grid">
        <dia:attribute name="dynamic">
          <dia:boolean val="true"/>
        </dia:attribute>
        <dia:attribute name="width_x">
          <dia:real val="1"/>
        </dia:attribute>
        <dia:attribute name="width_y">
          <dia:real val="1"/>
        </dia:attribute>
        <dia:attribute name="visible_x">
          <dia:int val="1"/>
        </dia:attribute>
        <dia:attribute name="visible_y">
          <dia:int val="1"/>
        </dia:attribute>
        <dia:composite type="color"/>
      </dia:composite>
    </dia:attribute>
    <dia:attribute name="color">
      <dia:color val="#d8e5e5ff"/>
    </dia:attribute>
    <dia:attribute name="guides">
      <dia:composite type="guides">
        <dia:attribute name="hguides"/>
        <dia:attribute name="vguides"/>
      </dia:composite>
    </dia:attribute>
    <dia:attribute name="display">
      <dia:composite type="display">
        <dia:attribute name="antialiased">
          <dia:boolean val="false"/>
        </dia:attribute>
        <dia:attribute name="snap-to-grid">
          <dia:boolean val="true"/>
        </dia:attribute>
        <dia:attribute name="snap-to-object">
          <dia:boolean val="true"/>
        </dia:attribute>
        <dia:attribute name="show-grid">
          <dia:boolean val="true"/>
        </dia:attribute>
        <dia:attribute name="show-connection-points">
          <dia:boolean val="true"/>
        </dia:attribute>
      </dia:composite>
    </dia:attribute>
  </dia:diagramdata>
  <dia:layer name="Background" visible="true" connectable="true" active="true">
    <dia:object type="Flowchart - Box" version="0" id="O0">
      <dia:attribute name="obj_pos">
        <dia:point val="20,15"/>
      </dia:attribute>
      <dia:attribute name="obj_bb">
        <dia:rectangle val="19.875,14.875;24.125,18.125"/>
      </dia:attribute>
      <dia:attribute name="elem_corner">
        <dia:point val="20,15"/>
      </dia:attribute>
      <dia:attribute name="elem_width">
        <dia:real val="4"/>
      </dia:attribute>
      <dia:attribute name="elem_height">
        <dia:real val="3"/>
      </dia:attribute>
      <dia:attribute name="border_width">
        <dia:real val="0.25"/>
      </dia:attribute>
      <dia:attribute name="show_background">
        <dia:boolean val="true"/>
      </dia:attribute>
      <dia:attribute name="padding">
        <dia:real val="0.5"/>
      </dia:attribute>
      <dia:attribute name="text">
        <dia:composite type="text">
          <dia:attribute name="string">
            <dia:string>#Bed#</dia:string>
          </dia:attribute>
          <dia:attribute name="font">
            <dia:font family="sans" style="0" name="Helvetica"/>
          </dia:attribute>
          <dia:attribute name="height">
            <dia:real val="0.63499997556209564"/>
          </dia:attribute>
          <dia:attribute name="pos">
            <dia:point val="22,16.654"/>
          </dia:attribute>
          <dia:attribute name="color">
            <dia:color val="#000000ff"/>
          </dia:attribute>
          <dia:attribute name="alignment">
            <dia:enum val="1"/>
          </dia:attribute>
        </dia:composite>
      </dia:attribute>
    </dia:object>
    <dia:object type="Standard - Text" version="1" id="O1">
      <dia:attribute name="obj_pos">
        <dia:point val="23,19"/>
      </dia:attribute>
      <dia:attribute name="obj_bb">
        <dia:rectangle val="23,18.6218;24.6815,19.1162"/>
      </dia:attribute>
      <dia:attribute name="text">
        <dia:composite type="text">
          <dia:attribute name="string">
            <dia:string>#blankets#</dia:string>
          </dia:attribute>
          <dia:attribute name="font">
            <dia:font family="sans" style="0" name="Helvetica"/>
          </dia:attribute>
          <dia:attribute name="height">
            <dia:real val="0.49388886988162994"/>
          </dia:attribute>
          <dia:attribute name="pos">
            <dia:point val="23,19"/>
          </dia:attribute>
          <dia:attribute name="color">
            <dia:color val="#000000ff"/>
          </dia:attribute>
          <dia:attribute name="alignment">
            <dia:enum val="0"/>
          </dia:attribute>
        </dia:composite>
      </dia:attribute>
      <dia:attribute name="valign">
        <dia:enum val="3"/>
      </dia:attribute>
    </dia:object>
    <dia:object type="Flowchart - Box" version="0" id="O2">
      <dia:attribute name="obj_pos">
        <dia:point val="27,21"/>
      </dia:attribute>
      <dia:attribute name="obj_bb">
        <dia:rectangle val="26.95,20.95;31.05,24.05"/>
      </dia:attribute>
      <dia:attribute name="elem_corner">
        <dia:point val="27,21"/>
      </dia:attribute>
      <dia:attribute name="elem_width">
        <dia:real val="4"/>
      </dia:attribute>
      <dia:attribute name="elem_height">
        <dia:real val="3"/>
      </dia:attribute>
      <dia:attribute name="show_background">
        <dia:boolean val="true"/>
      </dia:attribute>
      <dia:attribute name="padding">
        <dia:real val="0.5"/>
      </dia:attribute>
      <dia:attribute name="text">
        <dia:composite type="text">
          <dia:attribute name="string">
            <dia:string>#Owner's
Room#</dia:string>
          </dia:attribute>
          <dia:attribute name="font">
            <dia:font family="sans" style="0" name="Helvetica"/>
          </dia:attribute>
          <dia:attribute name="height">
            <dia:real val="0.63499997556209564"/>
          </dia:attribute>
          <dia:attribute name="pos">
            <dia:point val="29,22.3365"/>
          </dia:attribute>
          <dia:attribute name="color">
            <dia:color val="#000000ff"/>
          </dia:attribute>
          <dia:attribute name="alignment">
            <dia:enum val="1"/>
          </dia:attribute>
        </dia:composite>
      </dia:attribute>
    </dia:object>
    <dia:object type="Standard - Arc" version="0" id="O3">
      <dia:attribute name="obj_pos">
        <dia:point val="24,17.25"/>
      </dia:attribute>
      <dia:attribute name="obj_bb">
        <dia:rectangle val="23.9293,17.1793;28.3387,21.0707"/>
      </dia:attribute>
      <dia:attribute name="conn_endpoints">
        <dia:point val="24,17.25"/>
        <dia:point val="28,21"/>
      </dia:attribute>
      <dia:attribute name="curve_distance">
        <dia:real val="-1.1363872124741694"/>
      </dia:attribute>
      <dia:attribute name="end_arrow">
        <dia:enum val="22"/>
      </dia:attribute>
      <dia:attribute name="end_arrow_length">
        <dia:real val="0.5"/>
      </dia:attribute>
      <dia:attribute name="end_arrow_width">
        <dia:real val="0.5"/>
      </dia:attribute>
      <dia:connections>
        <dia:connection handle="0" to="O0" connection="10"/>
        <dia:connection handle="1" to="O2" connection="1"/>
      </dia:connections>
    </dia:object>
    <dia:object type="Standard - Text" version="1" id="O4">
      <dia:attribute name="obj_pos">
        <dia:point val="25,17"/>
      </dia:attribute>
      <dia:attribute name="obj_bb">
        <dia:rectangle val="25,16.6218;26.0765,17.1162"/>
      </dia:attribute>
      <dia:attribute name="text">
        <dia:composite type="text">
          <dia:attribute name="string">
            <dia:string>#down#</dia:string>
          </dia:attribute>
          <dia:attribute name="font">
            <dia:font family="sans" style="0" name="Helvetica"/>
          </dia:attribute>
          <dia:attribute name="height">
            <dia:real val="0.49388886988162994"/>
          </dia:attribute>
          <dia:attribute name="pos">
            <dia:point val="25,17"/>
          </dia:attribute>
          <dia:attribute name="color">
            <dia:color val="#000000ff"/>
          </dia:attribute>
          <dia:attribute name="alignment">
            <dia:enum val="0"/>
          </dia:attribute>
        </dia:composite>
      </dia:attribute>
      <dia:attribute name="valign">
        <dia:enum val="3"/>
      </dia:attribute>
    </dia:object>
    <dia:object type="Standard - Text" version="1" id="O5">
      <dia:attribute name="obj_pos">
        <dia:point val="30,25"/>
      </dia:attribute>
      <dia:attribute name="obj_bb">
        <dia:rectangle val="30,24.6218;31.7865,25.6101"/>
      </dia:attribute>
      <dia:attribute name="text">
        <dia:composite type="text">
          <dia:attribute name="string">
            <dia:string>#shelves
phantom#</dia:string>
          </dia:attribute>
          <dia:attribute name="font">
            <dia:font family="sans" style="0" name="Helvetica"/>
          </dia:attribute>
          <dia:attribute name="height">
            <dia:real val="0.49388886988162994"/>
          </dia:attribute>
          <dia:attribute name="pos">
            <dia:point val="30,25"/>
          </dia:attribute>
          <dia:attribute name="color">
            <dia:color val="#000000ff"/>
          </dia:attribute>
          <dia:attribute name="alignment">
            <dia:enum val="0"/>
          </dia:attribute>
        </dia:composite>
      </dia:attribute>
      <dia:attribute name="valign">
        <dia:enum val="3"/>
      </dia:attribute>
    </dia:object>
    <dia:object type="Flowchart - Box" version="0" id="O6">
      <dia:attribute name="obj_pos">
        <dia:point val="27,9"/>
      </dia:attribute>
      <dia:attribute name="obj_bb">
        <dia:rectangle val="26.95,8.95;31.05,12.05"/>
      </dia:attribute>
      <dia:attribute name="elem_corner">
        <dia:point val="27,9"/>
      </dia:attribute>
      <dia:attribute name="elem_width">
        <dia:real val="4"/>
      </dia:attribute>
      <dia:attribute name="elem_height">
        <dia:real val="3"/>
      </dia:attribute>
      <dia:attribute name="show_background">
        <dia:boolean val="true"/>
      </dia:attribute>
      <dia:attribute name="padding">
        <dia:real val="0.5"/>
      </dia:attribute>
      <dia:attribute name="text">
        <dia:composite type="text">
          <dia:attribute name="string">
            <dia:string>#Hallway#</dia:string>
          </dia:attribute>
          <dia:attribute name="font">
            <dia:font family="sans" style="0" name="Helvetica"/>
          </dia:attribute>
          <dia:attribute name="height">
            <dia:real val="0.63499997556209564"/>
          </dia:attribute>
          <dia:attribute name="pos">
            <dia:point val="29,10.654"/>
          </dia:attribute>
          <dia:attribute name="color">
            <dia:color val="#000000ff"/>
          </dia:attribute>
          <dia:attribute name="alignment">
            <dia:enum val="1"/>
          </dia:attribute>
        </dia:composite>
      </dia:attribute>
    </dia:object>
    <dia:object type="Standard - Line" version="0" id="O7">
      <dia:attribute name="obj_pos">
        <dia:point val="29,12"/>
      </dia:attribute>
      <dia:attribute name="obj_bb">
        <dia:rectangle val="28.95,11.95;29.05,21.05"/>
      </dia:attribute>
      <dia:attribute name="conn_endpoints">
        <dia:point val="29,12"/>
        <dia:point val="29,21"/>
      </dia:attribute>
      <dia:attribute name="numcp">
        <dia:int val="1"/>
      </dia:attribute>
      <dia:attribute name="line_style">
        <dia:enum val="4"/>
      </dia:attribute>
      <dia:connections>
        <dia:connection handle="0" to="O6" connection="13"/>
        <dia:connection handle="1" to="O2" connection="2"/>
      </dia:connections>
    </dia:object>
    <dia:object type="Standard - Line" version="0" id="O8">
      <dia:attribute name="obj_pos">
        <dia:point val="31,10.5"/>
      </dia:attribute>
      <dia:attribute name="obj_bb">
        <dia:rectangle val="30.95,10.45;32.05,10.55"/>
      </dia:attribute>
      <dia:attribute name="conn_endpoints">
        <dia:point val="31,10.5"/>
        <dia:point val="32,10.5"/>
      </dia:attribute>
      <dia:attribute name="numcp">
        <dia:int val="1"/>
      </dia:attribute>
      <dia:attribute name="line_style">
        <dia:enum val="4"/>
      </dia:attribute>
      <dia:connections>
        <dia:connection handle="0" to="O6" connection="8"/>
      </dia:connections>
    </dia:object>
    <dia:object type="Standard - Line" version="0" id="O9">
      <dia:attribute name="obj_pos">
        <dia:point val="27,10.5"/>
      </dia:attribute>
      <dia:attribute name="obj_bb">
        <dia:rectangle val="16.95,10.45;27.05,10.55"/>
      </dia:attribute>
      <dia:attribute name="conn_endpoints">
        <dia:point val="27,10.5"/>
        <dia:point val="17,10.5"/>
      </dia:attribute>
      <dia:attribute name="numcp">
        <dia:int val="1"/>
      </dia:attribute>
      <dia:attribute name="line_style">
        <dia:enum val="4"/>
      </dia:attribute>
      <dia:connections>
        <dia:connection handle="0" to="O6" connection="7"/>
        <dia:connection handle="1" to="O19" connection="8"/>
      </dia:connections>
    </dia:object>
    <dia:object type="Standard - Line" version="0" id="O10">
      <dia:attribute name="obj_pos">
        <dia:point val="31,9"/>
      </dia:attribute>
      <dia:attribute name="obj_bb">
        <dia:rectangle val="30.9293,7.92929;32.0707,9.07071"/>
      </dia:attribute>
      <dia:attribute name="conn_endpoints">
        <dia:point val="31,9"/>
        <dia:point val="32,8"/>
      </dia:attribute>
      <dia:attribute name="numcp">
        <dia:int val="1"/>
      </dia:attribute>
      <dia:attribute name="line_style">
        <dia:enum val="4"/>
      </dia:attribute>
      <dia:connections>
        <dia:connection handle="0" to="O6" connection="4"/>
      </dia:connections>
    </dia:object>
    <dia:object type="Standard - Line" version="0" id="O11">
      <dia:attribute name="obj_pos">
        <dia:point val="29,9"/>
      </dia:attribute>
      <dia:attribute name="obj_bb">
        <dia:rectangle val="28.95,7.95;29.05,9.05"/>
      </dia:attribute>
      <dia:attribute name="conn_endpoints">
        <dia:point val="29,9"/>
        <dia:point val="29,8"/>
      </dia:attribute>
      <dia:attribute name="numcp">
        <dia:int val="1"/>
      </dia:attribute>
      <dia:attribute name="line_style">
        <dia:enum val="4"/>
      </dia:attribute>
      <dia:connections>
        <dia:connection handle="0" to="O6" connection="2"/>
      </dia:connections>
    </dia:object>
    <dia:object type="Standard - Line" version="0" id="O12">
      <dia:attribute name="obj_pos">
        <dia:point val="31,12"/>
      </dia:attribute>
      <dia:attribute name="obj_bb">
        <dia:rectangle val="30.9293,11.9293;32.0707,13.0707"/>
      </dia:attribute>
      <dia:attribute name="conn_endpoints">
        <dia:point val="31,12"/>
        <dia:point val="32,13"/>
      </dia:attribute>
      <dia:attribute name="numcp">
        <dia:int val="1"/>
      </dia:attribute>
      <dia:attribute name="line_style">
        <dia:enum val="4"/>
      </dia:attribute>
      <dia:connections>
        <dia:connection handle="0" to="O6" connection="15"/>
      </dia:connections>
    </dia:object>
    <dia:object type="Standard - Text" version="1" id="O13">
      <dia:attribute name="obj_pos">
        <dia:point val="30,13"/>
      </dia:attribute>
      <dia:attribute name="obj_bb">
        <dia:rectangle val="30,12.6218;31.7865,14.104"/>
      </dia:attribute>
      <dia:attribute name="text">
        <dia:composite type="text">
          <dia:attribute name="string">
            <dia:string>#switch
light
phantom#</dia:string>
          </dia:attribute>
          <dia:attribute name="font">
            <dia:font family="sans" style="0" name="Helvetica"/>
          </dia:attribute>
          <dia:attribute name="height">
            <dia:real val="0.49388886988162994"/>
          </dia:attribute>
          <dia:attribute name="pos">
            <dia:point val="30,13"/>
          </dia:attribute>
          <dia:attribute name="color">
            <dia:color val="#000000ff"/>
          </dia:attribute>
          <dia:attribute name="alignment">
            <dia:enum val="0"/>
          </dia:attribute>
        </dia:composite>
      </dia:attribute>
      <dia:attribute name="valign">
        <dia:enum val="3"/>
      </dia:attribute>
    </dia:object>
    <dia:object type="Flowchart - Box" version="0" id="O14">
      <dia:attribute name="obj_pos">
        <dia:point val="13,-15"/>
      </dia:attribute>
      <dia:attribute name="obj_bb">
        <dia:rectangle val="12.95,-15.05;17.05,-11.95"/>
      </dia:attribute>
      <dia:attribute name="elem_corner">
        <dia:point val="13,-15"/>
      </dia:attribute>
      <dia:attribute name="elem_width">
        <dia:real val="4"/>
      </dia:attribute>
      <dia:attribute name="elem_height">
        <dia:real val="3"/>
      </dia:attribute>
      <dia:attribute name="show_background">
        <dia:boolean val="true"/>
      </dia:attribute>
      <dia:attribute name="padding">
        <dia:real val="0.5"/>
      </dia:attribute>
      <dia:attribute name="text">
        <dia:composite type="text">
          <dia:attribute name="string">
            <dia:string>#Attic#</dia:string>
          </dia:attribute>
          <dia:attribute name="font">
            <dia:font family="sans" style="0" name="Helvetica"/>
          </dia:attribute>
          <dia:attribute name="height">
            <dia:real val="0.63499997556209564"/>
          </dia:attribute>
          <dia:attribute name="pos">
            <dia:point val="15,-13.346"/>
          </dia:attribute>
          <dia:attribute name="color">
            <dia:color val="#000000ff"/>
          </dia:attribute>
          <dia:attribute name="alignment">
            <dia:enum val="1"/>
          </dia:attribute>
        </dia:composite>
      </dia:attribute>
    </dia:object>
    <dia:object type="Standard - Text" version="1" id="O15">
      <dia:attribute name="obj_pos">
        <dia:point val="14,-11"/>
      </dia:attribute>
      <dia:attribute name="obj_bb">
        <dia:rectangle val="14,-11.3667;17.8475,-10.4129"/>
      </dia:attribute>
      <dia:attribute name="text">
        <dia:composite type="text">
          <dia:attribute name="string">
            <dia:string>#Monkey
Transforming Robot#</dia:string>
          </dia:attribute>
          <dia:attribute name="font">
            <dia:font family="sans" style="0" name="Helvetica"/>
          </dia:attribute>
          <dia:attribute name="height">
            <dia:real val="0.49388886988162994"/>
          </dia:attribute>
          <dia:attribute name="pos">
            <dia:point val="14,-11"/>
          </dia:attribute>
          <dia:attribute name="color">
            <dia:color val="#000000ff"/>
          </dia:attribute>
          <dia:attribute name="alignment">
            <dia:enum val="0"/>
          </dia:attribute>
        </dia:composite>
      </dia:attribute>
      <dia:attribute name="valign">
        <dia:enum val="3"/>
      </dia:attribute>
    </dia:object>
    <dia:object type="Standard - Line" version="0" id="O16">
      <dia:attribute name="obj_pos">
        <dia:point val="13,-13.5"/>
      </dia:attribute>
      <dia:attribute name="obj_bb">
        <dia:rectangle val="9.95,-13.55;13.05,-13.45"/>
      </dia:attribute>
      <dia:attribute name="conn_endpoints">
        <dia:point val="13,-13.5"/>
        <dia:point val="10,-13.5"/>
      </dia:attribute>
      <dia:attribute name="numcp">
        <dia:int val="1"/>
      </dia:attribute>
      <dia:connections>
        <dia:connection handle="0" to="O14" connection="7"/>
        <dia:connection handle="1" to="O17" connection="8"/>
      </dia:connections>
    </dia:object>
    <dia:object type="Flowchart - Box" version="0" id="O17">
      <dia:attribute name="obj_pos">
        <dia:point val="6,-15.0025"/>
      </dia:attribute>
      <dia:attribute name="obj_bb">
        <dia:rectangle val="5.95,-15.0525;10.05,-11.9475"/>
      </dia:attribute>
      <dia:attribute name="elem_corner">
        <dia:point val="6,-15.0025"/>
      </dia:attribute>
      <dia:attribute name="elem_width">
        <dia:real val="4"/>
      </dia:attribute>
      <dia:attribute name="elem_height">
        <dia:real val="3.004999926686287"/>
      </dia:attribute>
      <dia:attribute name="show_background">
        <dia:boolean val="true"/>
      </dia:attribute>
      <dia:attribute name="padding">
        <dia:real val="0.5"/>
      </dia:attribute>
      <dia:attribute name="text">
        <dia:composite type="text">
          <dia:attribute name="string">
            <dia:string>#(insulation
pits)#</dia:string>
          </dia:attribute>
          <dia:attribute name="font">
            <dia:font family="sans" style="0" name="Helvetica"/>
          </dia:attribute>
          <dia:attribute name="height">
            <dia:real val="0.63499997556209564"/>
          </dia:attribute>
          <dia:attribute name="pos">
            <dia:point val="8,-13.6635"/>
          </dia:attribute>
          <dia:attribute name="color">
            <dia:color val="#000000ff"/>
          </dia:attribute>
          <dia:attribute name="alignment">
            <dia:enum val="1"/>
          </dia:attribute>
        </dia:composite>
      </dia:attribute>
    </dia:object>
    <dia:object type="Standard - BezierLine" version="0" id="O18">
      <dia:attribute name="obj_pos">
        <dia:point val="27,9"/>
      </dia:attribute>
      <dia:attribute name="obj_bb">
        <dia:rectangle val="16.945,-13.6233;27.0693,9.06934"/>
      </dia:attribute>
      <dia:attribute name="bez_points">
        <dia:point val="27,9"/>
        <dia:point val="24,7"/>
        <dia:point val="31,-15"/>
        <dia:point val="17,-13.5"/>
      </dia:attribute>
      <dia:attribute name="corner_types">
        <dia:enum val="0"/>
        <dia:enum val="0"/>
      </dia:attribute>
      <dia:connections>
        <dia:connection handle="0" to="O6" connection="0"/>
        <dia:connection handle="3" to="O14" connection="8"/>
      </dia:connections>
    </dia:object>
    <dia:object type="Flowchart - Box" version="0" id="O19">
      <dia:attribute name="obj_pos">
        <dia:point val="13,9"/>
      </dia:attribute>
      <dia:attribute name="obj_bb">
        <dia:rectangle val="12.95,8.95;17.05,12.05"/>
      </dia:attribute>
      <dia:attribute name="elem_corner">
        <dia:point val="13,9"/>
      </dia:attribute>
      <dia:attribute name="elem_width">
        <dia:real val="4"/>
      </dia:attribute>
      <dia:attribute name="elem_height">
        <dia:real val="3.0000000000000009"/>
      </dia:attribute>
      <dia:attribute name="show_background">
        <dia:boolean val="true"/>
      </dia:attribute>
      <dia:attribute name="padding">
        <dia:real val="0.5"/>
      </dia:attribute>
      <dia:attribute name="text">
        <dia:composite type="text">
          <dia:attribute name="string">
            <dia:string>#Mezzanine#</dia:string>
          </dia:attribute>
          <dia:attribute name="font">
            <dia:font family="sans" style="0" name="Helvetica"/>
          </dia:attribute>
          <dia:attribute name="height">
            <dia:real val="0.63499997556209564"/>
          </dia:attribute>
          <dia:attribute name="pos">
            <dia:point val="15,10.654"/>
          </dia:attribute>
          <dia:attribute name="color">
            <dia:color val="#000000ff"/>
          </dia:attribute>
          <dia:attribute name="alignment">
            <dia:enum val="1"/>
          </dia:attribute>
        </dia:composite>
      </dia:attribute>
    </dia:object>
    <dia:object type="Flowchart - Box" version="0" id="O20">
      <dia:attribute name="obj_pos">
        <dia:point val="13,3"/>
      </dia:attribute>
      <dia:attribute name="obj_bb">
        <dia:rectangle val="12.95,2.95;17.05,6.05"/>
      </dia:attribute>
      <dia:attribute name="elem_corner">
        <dia:point val="13,3"/>
      </dia:attribute>
      <dia:attribute name="elem_width">
        <dia:real val="4"/>
      </dia:attribute>
      <dia:attribute name="elem_height">
        <dia:real val="3"/>
      </dia:attribute>
      <dia:attribute name="show_background">
        <dia:boolean val="true"/>
      </dia:attribute>
      <dia:attribute name="padding">
        <dia:real val="0.5"/>
      </dia:attribute>
      <dia:attribute name="text">
        <dia:composite type="text">
          <dia:attribute name="string">
            <dia:string>#Living
Room#</dia:string>
          </dia:attribute>
          <dia:attribute name="font">
            <dia:font family="sans" style="0" name="Helvetica"/>
          </dia:attribute>
          <dia:attribute name="height">
            <dia:real val="0.63499997556209564"/>
          </dia:attribute>
          <dia:attribute name="pos">
            <dia:point val="15,4.33654"/>
          </dia:attribute>
          <dia:attribute name="color">
            <dia:color val="#000000ff"/>
          </dia:attribute>
          <dia:attribute name="alignment">
            <dia:enum val="1"/>
          </dia:attribute>
        </dia:composite>
      </dia:attribute>
    </dia:object>
    <dia:object type="Standard - Line" version="0" id="O21">
      <dia:attribute name="obj_pos">
        <dia:point val="15,9"/>
      </dia:attribute>
      <dia:attribute name="obj_bb">
        <dia:rectangle val="14.6382,5.95;15.3618,9.05"/>
      </dia:attribute>
      <dia:attribute name="conn_endpoints">
        <dia:point val="15,9"/>
        <dia:point val="15,6"/>
      </dia:attribute>
      <dia:attribute name="numcp">
        <dia:int val="1"/>
      </dia:attribute>
      <dia:attribute name="end_arrow">
        <dia:enum val="22"/>
      </dia:attribute>
      <dia:attribute name="end_arrow_length">
        <dia:real val="0.5"/>
      </dia:attribute>
      <dia:attribute name="end_arrow_width">
        <dia:real val="0.5"/>
      </dia:attribute>
      <dia:connections>
        <dia:connection handle="0" to="O19" connection="2"/>
        <dia:connection handle="1" to="O20" connection="13"/>
      </dia:connections>
    </dia:object>
    <dia:object type="Standard - Text" version="1" id="O22">
      <dia:attribute name="obj_pos">
        <dia:point val="16,7"/>
      </dia:attribute>
      <dia:attribute name="obj_bb">
        <dia:rectangle val="16,6.63325;18.45,7.09318"/>
      </dia:attribute>
      <dia:attribute name="text">
        <dia:composite type="text">
          <dia:attribute name="string">
            <dia:string>#Music Maker#</dia:string>
          </dia:attribute>
          <dia:attribute name="font">
            <dia:font family="sans" style="0" name="Helvetica"/>
          </dia:attribute>
          <dia:attribute name="height">
            <dia:real val="0.49388886988162994"/>
          </dia:attribute>
          <dia:attribute name="pos">
            <dia:point val="16,7"/>
          </dia:attribute>
          <dia:attribute name="color">
            <dia:color val="#000000ff"/>
          </dia:attribute>
          <dia:attribute name="alignment">
            <dia:enum val="0"/>
          </dia:attribute>
        </dia:composite>
      </dia:attribute>
      <dia:attribute name="valign">
        <dia:enum val="3"/>
      </dia:attribute>
    </dia:object>
    <dia:object type="Standard - Line" version="0" id="O23">
      <dia:attribute name="obj_pos">
        <dia:point val="15,3"/>
      </dia:attribute>
      <dia:attribute name="obj_bb">
        <dia:rectangle val="14.95,-0.05;15.05,3.05"/>
      </dia:attribute>
      <dia:attribute name="conn_endpoints">
        <dia:point val="15,3"/>
        <dia:point val="15,0"/>
      </dia:attribute>
      <dia:attribute name="numcp">
        <dia:int val="1"/>
      </dia:attribute>
      <dia:connections>
        <dia:connection handle="0" to="O20" connection="2"/>
        <dia:connection handle="1" to="O27" connection="13"/>
      </dia:connections>
    </dia:object>
    <dia:object type="Standard - Line" version="0" id="O24">
      <dia:attribute name="obj_pos">
        <dia:point val="12.959,4.5"/>
      </dia:attribute>
      <dia:attribute name="obj_bb">
        <dia:rectangle val="9.95,4.45;13.009,4.55"/>
      </dia:attribute>
      <dia:attribute name="conn_endpoints">
        <dia:point val="12.959,4.5"/>
        <dia:point val="10,4.5"/>
      </dia:attribute>
      <dia:attribute name="numcp">
        <dia:int val="1"/>
      </dia:attribute>
      <dia:connections>
        <dia:connection handle="0" to="O20" connection="16"/>
        <dia:connection handle="1" to="O25" connection="8"/>
      </dia:connections>
    </dia:object>
    <dia:object type="Flowchart - Box" version="0" id="O25">
      <dia:attribute name="obj_pos">
        <dia:point val="6,3"/>
      </dia:attribute>
      <dia:attribute name="obj_bb">
        <dia:rectangle val="5.95,2.95;10.05,6.05"/>
      </dia:attribute>
      <dia:attribute name="elem_corner">
        <dia:point val="6,3"/>
      </dia:attribute>
      <dia:attribute name="elem_width">
        <dia:real val="4"/>
      </dia:attribute>
      <dia:attribute name="elem_height">
        <dia:real val="3"/>
      </dia:attribute>
      <dia:attribute name="show_background">
        <dia:boolean val="true"/>
      </dia:attribute>
      <dia:attribute name="padding">
        <dia:real val="0.5"/>
      </dia:attribute>
      <dia:attribute name="text">
        <dia:composite type="text">
          <dia:attribute name="string">
            <dia:string>#Utility
Room#</dia:string>
          </dia:attribute>
          <dia:attribute name="font">
            <dia:font family="sans" style="0" name="Helvetica"/>
          </dia:attribute>
          <dia:attribute name="height">
            <dia:real val="0.63499997556209564"/>
          </dia:attribute>
          <dia:attribute name="pos">
            <dia:point val="8,4.33654"/>
          </dia:attribute>
          <dia:attribute name="color">
            <dia:color val="#000000ff"/>
          </dia:attribute>
          <dia:attribute name="alignment">
            <dia:enum val="1"/>
          </dia:attribute>
        </dia:composite>
      </dia:attribute>
    </dia:object>
    <dia:object type="Standard - Line" version="0" id="O26">
      <dia:attribute name="obj_pos">
        <dia:point val="6,4.5"/>
      </dia:attribute>
      <dia:attribute name="obj_bb">
        <dia:rectangle val="2.95,4.45;6.05,4.55"/>
      </dia:attribute>
      <dia:attribute name="conn_endpoints">
        <dia:point val="6,4.5"/>
        <dia:point val="3,4.5"/>
      </dia:attribute>
      <dia:attribute name="numcp">
        <dia:int val="1"/>
      </dia:attribute>
      <dia:attribute name="line_style">
        <dia:enum val="4"/>
      </dia:attribute>
      <dia:connections>
        <dia:connection handle="0" to="O25" connection="7"/>
        <dia:connection handle="1" to="O38" connection="8"/>
      </dia:connections>
    </dia:object>
    <dia:object type="Flowchart - Box" version="0" id="O27">
      <dia:attribute name="obj_pos">
        <dia:point val="13,-3"/>
      </dia:attribute>
      <dia:attribute name="obj_bb">
        <dia:rectangle val="12.95,-3.05;17.05,0.05"/>
      </dia:attribute>
      <dia:attribute name="elem_corner">
        <dia:point val="13,-3"/>
      </dia:attribute>
      <dia:attribute name="elem_width">
        <dia:real val="4"/>
      </dia:attribute>
      <dia:attribute name="elem_height">
        <dia:real val="3"/>
      </dia:attribute>
      <dia:attribute name="show_background">
        <dia:boolean val="true"/>
      </dia:attribute>
      <dia:attribute name="padding">
        <dia:real val="0.5"/>
      </dia:attribute>
      <dia:attribute name="text">
        <dia:composite type="text">
          <dia:attribute name="string">
            <dia:string>#Kitchen#</dia:string>
          </dia:attribute>
          <dia:attribute name="font">
            <dia:font family="sans" style="0" name="Helvetica"/>
          </dia:attribute>
          <dia:attribute name="height">
            <dia:real val="0.63499997556209564"/>
          </dia:attribute>
          <dia:attribute name="pos">
            <dia:point val="15,-1.34596"/>
          </dia:attribute>
          <dia:attribute name="color">
            <dia:color val="#000000ff"/>
          </dia:attribute>
          <dia:attribute name="alignment">
            <dia:enum val="1"/>
          </dia:attribute>
        </dia:composite>
      </dia:attribute>
    </dia:object>
    <dia:object type="Standard - Text" version="1" id="O28">
      <dia:attribute name="obj_pos">
        <dia:point val="14.3,8"/>
      </dia:attribute>
      <dia:attribute name="obj_bb">
        <dia:rectangle val="13.235,8;14.3,8.45993"/>
      </dia:attribute>
      <dia:attribute name="text">
        <dia:composite type="text">
          <dia:attribute name="string">
            <dia:string>#down#</dia:string>
          </dia:attribute>
          <dia:attribute name="font">
            <dia:font family="sans" style="0" name="Helvetica"/>
          </dia:attribute>
          <dia:attribute name="height">
            <dia:real val="0.49388886988162994"/>
          </dia:attribute>
          <dia:attribute name="pos">
            <dia:point val="14.3,8.36675"/>
          </dia:attribute>
          <dia:attribute name="color">
            <dia:color val="#000000ff"/>
          </dia:attribute>
          <dia:attribute name="alignment">
            <dia:enum val="2"/>
          </dia:attribute>
        </dia:composite>
      </dia:attribute>
      <dia:attribute name="valign">
        <dia:enum val="0"/>
      </dia:attribute>
    </dia:object>
    <dia:object type="Standard - BezierLine" version="0" id="O29">
      <dia:attribute name="obj_pos">
        <dia:point val="17,0"/>
      </dia:attribute>
      <dia:attribute name="obj_bb">
        <dia:rectangle val="16.9329,-0.067082;20.1068,9.02"/>
      </dia:attribute>
      <dia:attribute name="bez_points">
        <dia:point val="17,0"/>
        <dia:point val="21,2"/>
        <dia:point val="21,7"/>
        <dia:point val="17,9"/>
      </dia:attribute>
      <dia:attribute name="corner_types">
        <dia:enum val="0"/>
        <dia:enum val="0"/>
      </dia:attribute>
      <dia:attribute name="end_arrow">
        <dia:enum val="22"/>
      </dia:attribute>
      <dia:attribute name="end_arrow_length">
        <dia:real val="0.5"/>
      </dia:attribute>
      <dia:attribute name="end_arrow_width">
        <dia:real val="0.5"/>
      </dia:attribute>
      <dia:connections>
        <dia:connection handle="0" to="O27" connection="15"/>
        <dia:connection handle="3" to="O19" connection="4"/>
      </dia:connections>
    </dia:object>
    <dia:object type="Standard - Text" version="1" id="O30">
      <dia:attribute name="obj_pos">
        <dia:point val="18,0"/>
      </dia:attribute>
      <dia:attribute name="obj_bb">
        <dia:rectangle val="18,-0.366748;18.5,0.0931812"/>
      </dia:attribute>
      <dia:attribute name="text">
        <dia:composite type="text">
          <dia:attribute name="string">
            <dia:string>#up#</dia:string>
          </dia:attribute>
          <dia:attribute name="font">
            <dia:font family="sans" style="0" name="Helvetica"/>
          </dia:attribute>
          <dia:attribute name="height">
            <dia:real val="0.49388886988162994"/>
          </dia:attribute>
          <dia:attribute name="pos">
            <dia:point val="18,0"/>
          </dia:attribute>
          <dia:attribute name="color">
            <dia:color val="#000000ff"/>
          </dia:attribute>
          <dia:attribute name="alignment">
            <dia:enum val="0"/>
          </dia:attribute>
        </dia:composite>
      </dia:attribute>
      <dia:attribute name="valign">
        <dia:enum val="3"/>
      </dia:attribute>
    </dia:object>
    <dia:object type="Flowchart - Box" version="0" id="O31">
      <dia:attribute name="obj_pos">
        <dia:point val="13,-9"/>
      </dia:attribute>
      <dia:attribute name="obj_bb">
        <dia:rectangle val="12.95,-9.05;17.05,-5.95"/>
      </dia:attribute>
      <dia:attribute name="elem_corner">
        <dia:point val="13,-9"/>
      </dia:attribute>
      <dia:attribute name="elem_width">
        <dia:real val="4"/>
      </dia:attribute>
      <dia:attribute name="elem_height">
        <dia:real val="3"/>
      </dia:attribute>
      <dia:attribute name="show_background">
        <dia:boolean val="true"/>
      </dia:attribute>
      <dia:attribute name="padding">
        <dia:real val="0.5"/>
      </dia:attribute>
      <dia:attribute name="text">
        <dia:composite type="text">
          <dia:attribute name="string">
            <dia:string>#Back
Porch#</dia:string>
          </dia:attribute>
          <dia:attribute name="font">
            <dia:font family="sans" style="0" name="Helvetica"/>
          </dia:attribute>
          <dia:attribute name="height">
            <dia:real val="0.63499997556209564"/>
          </dia:attribute>
          <dia:attribute name="pos">
            <dia:point val="15,-7.66346"/>
          </dia:attribute>
          <dia:attribute name="color">
            <dia:color val="#000000ff"/>
          </dia:attribute>
          <dia:attribute name="alignment">
            <dia:enum val="1"/>
          </dia:attribute>
        </dia:composite>
      </dia:attribute>
    </dia:object>
    <dia:object type="Standard - Line" version="0" id="O32">
      <dia:attribute name="obj_pos">
        <dia:point val="15,-3"/>
      </dia:attribute>
      <dia:attribute name="obj_bb">
        <dia:rectangle val="14.95,-6.05;15.05,-2.95"/>
      </dia:attribute>
      <dia:attribute name="conn_endpoints">
        <dia:point val="15,-3"/>
        <dia:point val="15,-6"/>
      </dia:attribute>
      <dia:attribute name="numcp">
        <dia:int val="1"/>
      </dia:attribute>
      <dia:connections>
        <dia:connection handle="0" to="O27" connection="2"/>
        <dia:connection handle="1" to="O31" connection="13"/>
      </dia:connections>
    </dia:object>
    <dia:object type="Standard - Text" version="1" id="O33">
      <dia:attribute name="obj_pos">
        <dia:point val="16,-5"/>
      </dia:attribute>
      <dia:attribute name="obj_bb">
        <dia:rectangle val="16,-5.37825;18.1815,-4.38993"/>
      </dia:attribute>
      <dia:attribute name="text">
        <dia:composite type="text">
          <dia:attribute name="string">
            <dia:string>#Plastic Car
Plastic Doll#</dia:string>
          </dia:attribute>
          <dia:attribute name="font">
            <dia:font family="sans" style="0" name="Helvetica"/>
          </dia:attribute>
          <dia:attribute name="height">
            <dia:real val="0.49388886988162994"/>
          </dia:attribute>
          <dia:attribute name="pos">
            <dia:point val="16,-5"/>
          </dia:attribute>
          <dia:attribute name="color">
            <dia:color val="#000000ff"/>
          </dia:attribute>
          <dia:attribute name="alignment">
            <dia:enum val="0"/>
          </dia:attribute>
        </dia:composite>
      </dia:attribute>
      <dia:attribute name="valign">
        <dia:enum val="3"/>
      </dia:attribute>
    </dia:object>
    <dia:object type="Flowchart - Box" version="0" id="O34">
      <dia:attribute name="obj_pos">
        <dia:point val="20,-3"/>
      </dia:attribute>
      <dia:attribute name="obj_bb">
        <dia:rectangle val="19.95,-3.05;24.05,0.05"/>
      </dia:attribute>
      <dia:attribute name="elem_corner">
        <dia:point val="20,-3"/>
      </dia:attribute>
      <dia:attribute name="elem_width">
        <dia:real val="4"/>
      </dia:attribute>
      <dia:attribute name="elem_height">
        <dia:real val="3"/>
      </dia:attribute>
      <dia:attribute name="inner_color">
        <dia:color val="#000000ff"/>
      </dia:attribute>
      <dia:attribute name="show_background">
        <dia:boolean val="true"/>
      </dia:attribute>
      <dia:attribute name="padding">
        <dia:real val="0.5"/>
      </dia:attribute>
      <dia:attribute name="text">
        <dia:composite type="text">
          <dia:attribute name="string">
            <dia:string>#Den#</dia:string>
          </dia:attribute>
          <dia:attribute name="font">
            <dia:font family="sans" style="0" name="Helvetica"/>
          </dia:attribute>
          <dia:attribute name="height">
            <dia:real val="0.63499997556209564"/>
          </dia:attribute>
          <dia:attribute name="pos">
            <dia:point val="22,-1.34596"/>
          </dia:attribute>
          <dia:attribute name="color">
            <dia:color val="#ffffffff"/>
          </dia:attribute>
          <dia:attribute name="alignment">
            <dia:enum val="1"/>
          </dia:attribute>
        </dia:composite>
      </dia:attribute>
    </dia:object>
    <dia:object type="Standard - Line" version="0" id="O35">
      <dia:attribute name="obj_pos">
        <dia:point val="17,-1.5"/>
      </dia:attribute>
      <dia:attribute name="obj_bb">
        <dia:rectangle val="16.95,-1.55;20.05,-1.45"/>
      </dia:attribute>
      <dia:attribute name="conn_endpoints">
        <dia:point val="17,-1.5"/>
        <dia:point val="20,-1.5"/>
      </dia:attribute>
      <dia:attribute name="numcp">
        <dia:int val="1"/>
      </dia:attribute>
      <dia:connections>
        <dia:connection handle="0" to="O27" connection="8"/>
        <dia:connection handle="1" to="O34" connection="7"/>
      </dia:connections>
    </dia:object>
    <dia:object type="Standard - Text" version="1" id="O36">
      <dia:attribute name="obj_pos">
        <dia:point val="23,1"/>
      </dia:attribute>
      <dia:attribute name="obj_bb">
        <dia:rectangle val="23,0.633252;25.685,1.09318"/>
      </dia:attribute>
      <dia:attribute name="text">
        <dia:composite type="text">
          <dia:attribute name="string">
            <dia:string>#Frog Reporter#</dia:string>
          </dia:attribute>
          <dia:attribute name="font">
            <dia:font family="sans" style="0" name="Helvetica"/>
          </dia:attribute>
          <dia:attribute name="height">
            <dia:real val="0.49388886988162994"/>
          </dia:attribute>
          <dia:attribute name="pos">
            <dia:point val="23,1"/>
          </dia:attribute>
          <dia:attribute name="color">
            <dia:color val="#000000ff"/>
          </dia:attribute>
          <dia:attribute name="alignment">
            <dia:enum val="0"/>
          </dia:attribute>
        </dia:composite>
      </dia:attribute>
      <dia:attribute name="valign">
        <dia:enum val="3"/>
      </dia:attribute>
    </dia:object>
    <dia:object type="Standard - Line" version="0" id="O37">
      <dia:attribute name="obj_pos">
        <dia:point val="24,-1.5"/>
      </dia:attribute>
      <dia:attribute name="obj_bb">
        <dia:rectangle val="23.95,-1.55;25.05,-1.45"/>
      </dia:attribute>
      <dia:attribute name="conn_endpoints">
        <dia:point val="24,-1.5"/>
        <dia:point val="25,-1.5"/>
      </dia:attribute>
      <dia:attribute name="numcp">
        <dia:int val="1"/>
      </dia:attribute>
      <dia:attribute name="line_style">
        <dia:enum val="4"/>
      </dia:attribute>
      <dia:connections>
        <dia:connection handle="0" to="O34" connection="8"/>
      </dia:connections>
    </dia:object>
    <dia:object type="Flowchart - Box" version="0" id="O38">
      <dia:attribute name="obj_pos">
        <dia:point val="-1,3"/>
      </dia:attribute>
      <dia:attribute name="obj_bb">
        <dia:rectangle val="-1.05,2.95;3.05,6.05"/>
      </dia:attribute>
      <dia:attribute name="elem_corner">
        <dia:point val="-1,3"/>
      </dia:attribute>
      <dia:attribute name="elem_width">
        <dia:real val="4"/>
      </dia:attribute>
      <dia:attribute name="elem_height">
        <dia:real val="3"/>
      </dia:attribute>
      <dia:attribute name="show_background">
        <dia:boolean val="true"/>
      </dia:attribute>
      <dia:attribute name="padding">
        <dia:real val="0.5"/>
      </dia:attribute>
      <dia:attribute name="text">
        <dia:composite type="text">
          <dia:attribute name="string">
            <dia:string>#(outside)#</dia:string>
          </dia:attribute>
          <dia:attribute name="font">
            <dia:font family="sans" style="0" name="Helvetica"/>
          </dia:attribute>
          <dia:attribute name="height">
            <dia:real val="0.63499997556209564"/>
          </dia:attribute>
          <dia:attribute name="pos">
            <dia:point val="1,4.65404"/>
          </dia:attribute>
          <dia:attribute name="color">
            <dia:color val="#000000ff"/>
          </dia:attribute>
          <dia:attribute name="alignment">
            <dia:enum val="1"/>
          </dia:attribute>
        </dia:composite>
      </dia:attribute>
    </dia:object>
  </dia:layer>
</dia:diagram>
