<?xml version="1.0" encoding="UTF-8"?>
<dia:diagram xmlns:dia="http://www.lysator.liu.se/~alla/dia/">
  <dia:diagramdata>
    <dia:attribute name="background">
      <dia:color val="#ffffffff"/>
    </dia:attribute>
    <dia:attribute name="pagebreak">
      <dia:color val="#000099ff"/>
    </dia:attribute>
    <dia:attribute name="paper">
      <dia:composite type="paper">
        <dia:attribute name="name">
          <dia:string>#A3#</dia:string>
        </dia:attribute>
        <dia:attribute name="tmargin">
          <dia:real val="2.8222000598907471"/>
        </dia:attribute>
        <dia:attribute name="bmargin">
          <dia:real val="2.8222000598907471"/>
        </dia:attribute>
        <dia:attribute name="lmargin">
          <dia:real val="2.8222000598907471"/>
        </dia:attribute>
        <dia:attribute name="rmargin">
          <dia:real val="2.8222000598907471"/>
        </dia:attribute>
        <dia:attribute name="is_portrait">
          <dia:boolean val="false"/>
        </dia:attribute>
        <dia:attribute name="scaling">
          <dia:real val="1"/>
        </dia:attribute>
        <dia:attribute name="fitto">
          <dia:boolean val="false"/>
        </dia:attribute>
      </dia:composite>
    </dia:attribute>
    <dia:attribute name="grid">
      <dia:composite type="grid">
        <dia:attribute name="dynamic">
          <dia:boolean val="true"/>
        </dia:attribute>
        <dia:attribute name="width_x">
          <dia:real val="1"/>
        </dia:attribute>
        <dia:attribute name="width_y">
          <dia:real val="1"/>
        </dia:attribute>
        <dia:attribute name="visible_x">
          <dia:int val="1"/>
        </dia:attribute>
        <dia:attribute name="visible_y">
          <dia:int val="1"/>
        </dia:attribute>
        <dia:composite type="color"/>
      </dia:composite>
    </dia:attribute>
    <dia:attribute name="color">
      <dia:color val="#d8e5e5ff"/>
    </dia:attribute>
    <dia:attribute name="guides">
      <dia:composite type="guides">
        <dia:attribute name="hguides"/>
        <dia:attribute name="vguides"/>
      </dia:composite>
    </dia:attribute>
    <dia:attribute name="display">
      <dia:composite type="display">
        <dia:attribute name="antialiased">
          <dia:boolean val="false"/>
        </dia:attribute>
        <dia:attribute name="snap-to-grid">
          <dia:boolean val="true"/>
        </dia:attribute>
        <dia:attribute name="snap-to-object">
          <dia:boolean val="true"/>
        </dia:attribute>
        <dia:attribute name="show-grid">
          <dia:boolean val="true"/>
        </dia:attribute>
        <dia:attribute name="show-connection-points">
          <dia:boolean val="true"/>
        </dia:attribute>
      </dia:composite>
    </dia:attribute>
  </dia:diagramdata>
  <dia:layer name="Background" visible="true" connectable="true" active="true">
    <dia:object type="Flowchart - Box" version="0" id="O0">
      <dia:attribute name="obj_pos">
        <dia:point val="10,10"/>
      </dia:attribute>
      <dia:attribute name="obj_bb">
        <dia:rectangle val="9.875,9.875;14.125,13.125"/>
      </dia:attribute>
      <dia:attribute name="elem_corner">
        <dia:point val="10,10"/>
      </dia:attribute>
      <dia:attribute name="elem_width">
        <dia:real val="4"/>
      </dia:attribute>
      <dia:attribute name="elem_height">
        <dia:real val="3"/>
      </dia:attribute>
      <dia:attribute name="border_width">
        <dia:real val="0.25"/>
      </dia:attribute>
      <dia:attribute name="show_background">
        <dia:boolean val="true"/>
      </dia:attribute>
      <dia:attribute name="padding">
        <dia:real val="0.5"/>
      </dia:attribute>
      <dia:attribute name="text">
        <dia:composite type="text">
          <dia:attribute name="string">
            <dia:string>#Captain's
Quarters#</dia:string>
          </dia:attribute>
          <dia:attribute name="font">
            <dia:font family="sans" style="0" name="Helvetica"/>
          </dia:attribute>
          <dia:attribute name="height">
            <dia:real val="0.63499997556209564"/>
          </dia:attribute>
          <dia:attribute name="pos">
            <dia:point val="12,11.3375"/>
          </dia:attribute>
          <dia:attribute name="color">
            <dia:color val="#000000ff"/>
          </dia:attribute>
          <dia:attribute name="alignment">
            <dia:enum val="1"/>
          </dia:attribute>
        </dia:composite>
      </dia:attribute>
    </dia:object>
    <dia:object type="Standard - Line" version="0" id="O1">
      <dia:attribute name="obj_pos">
        <dia:point val="10,11.5"/>
      </dia:attribute>
      <dia:attribute name="obj_bb">
        <dia:rectangle val="6.95,11.45;10.05,11.55"/>
      </dia:attribute>
      <dia:attribute name="conn_endpoints">
        <dia:point val="10,11.5"/>
        <dia:point val="7,11.5"/>
      </dia:attribute>
      <dia:attribute name="numcp">
        <dia:int val="1"/>
      </dia:attribute>
      <dia:attribute name="line_style">
        <dia:enum val="4"/>
      </dia:attribute>
      <dia:connections>
        <dia:connection handle="0" to="O0" connection="7"/>
        <dia:connection handle="1" to="O3" connection="8"/>
      </dia:connections>
    </dia:object>
    <dia:object type="Standard - Text" version="1" id="O2">
      <dia:attribute name="obj_pos">
        <dia:point val="13,14"/>
      </dia:attribute>
      <dia:attribute name="obj_bb">
        <dia:rectangle val="13,13.6325;15.3975,16.0706"/>
      </dia:attribute>
      <dia:attribute name="text">
        <dia:composite type="text">
          <dia:attribute name="string">
            <dia:string>#Captain
bed
computer
     message
dresser#</dia:string>
          </dia:attribute>
          <dia:attribute name="font">
            <dia:font family="sans" style="0" name="Helvetica"/>
          </dia:attribute>
          <dia:attribute name="height">
            <dia:real val="0.49388886988162994"/>
          </dia:attribute>
          <dia:attribute name="pos">
            <dia:point val="13,14"/>
          </dia:attribute>
          <dia:attribute name="color">
            <dia:color val="#000000ff"/>
          </dia:attribute>
          <dia:attribute name="alignment">
            <dia:enum val="0"/>
          </dia:attribute>
        </dia:composite>
      </dia:attribute>
      <dia:attribute name="valign">
        <dia:enum val="3"/>
      </dia:attribute>
    </dia:object>
    <dia:object type="Flowchart - Box" version="0" id="O3">
      <dia:attribute name="obj_pos">
        <dia:point val="3,10"/>
      </dia:attribute>
      <dia:attribute name="obj_bb">
        <dia:rectangle val="2.95,9.95;7.05,13.05"/>
      </dia:attribute>
      <dia:attribute name="elem_corner">
        <dia:point val="3,10"/>
      </dia:attribute>
      <dia:attribute name="elem_width">
        <dia:real val="4"/>
      </dia:attribute>
      <dia:attribute name="elem_height">
        <dia:real val="3"/>
      </dia:attribute>
      <dia:attribute name="show_background">
        <dia:boolean val="true"/>
      </dia:attribute>
      <dia:attribute name="padding">
        <dia:real val="0.5"/>
      </dia:attribute>
      <dia:attribute name="text">
        <dia:composite type="text">
          <dia:attribute name="string">
            <dia:string>#Hallway
Module#</dia:string>
          </dia:attribute>
          <dia:attribute name="font">
            <dia:font family="sans" style="0" name="Helvetica"/>
          </dia:attribute>
          <dia:attribute name="height">
            <dia:real val="0.63499997556209564"/>
          </dia:attribute>
          <dia:attribute name="pos">
            <dia:point val="5,11.3375"/>
          </dia:attribute>
          <dia:attribute name="color">
            <dia:color val="#000000ff"/>
          </dia:attribute>
          <dia:attribute name="alignment">
            <dia:enum val="1"/>
          </dia:attribute>
        </dia:composite>
      </dia:attribute>
    </dia:object>
    <dia:object type="Standard - Text" version="1" id="O4">
      <dia:attribute name="obj_pos">
        <dia:point val="6,14"/>
      </dia:attribute>
      <dia:attribute name="obj_bb">
        <dia:rectangle val="6,13.6325;8.825,14.095"/>
      </dia:attribute>
      <dia:attribute name="text">
        <dia:composite type="text">
          <dia:attribute name="string">
            <dia:string>#Grimes's body#</dia:string>
          </dia:attribute>
          <dia:attribute name="font">
            <dia:font family="sans" style="0" name="Helvetica"/>
          </dia:attribute>
          <dia:attribute name="height">
            <dia:real val="0.49388886988162994"/>
          </dia:attribute>
          <dia:attribute name="pos">
            <dia:point val="6,14"/>
          </dia:attribute>
          <dia:attribute name="color">
            <dia:color val="#000000ff"/>
          </dia:attribute>
          <dia:attribute name="alignment">
            <dia:enum val="0"/>
          </dia:attribute>
        </dia:composite>
      </dia:attribute>
      <dia:attribute name="valign">
        <dia:enum val="3"/>
      </dia:attribute>
    </dia:object>
    <dia:object type="Flowchart - Box" version="0" id="O5">
      <dia:attribute name="obj_pos">
        <dia:point val="-4,10"/>
      </dia:attribute>
      <dia:attribute name="obj_bb">
        <dia:rectangle val="-4.05,9.95;0.05,13.05"/>
      </dia:attribute>
      <dia:attribute name="elem_corner">
        <dia:point val="-4,10"/>
      </dia:attribute>
      <dia:attribute name="elem_width">
        <dia:real val="4"/>
      </dia:attribute>
      <dia:attribute name="elem_height">
        <dia:real val="3"/>
      </dia:attribute>
      <dia:attribute name="show_background">
        <dia:boolean val="true"/>
      </dia:attribute>
      <dia:attribute name="padding">
        <dia:real val="0.5"/>
      </dia:attribute>
      <dia:attribute name="text">
        <dia:composite type="text">
          <dia:attribute name="string">
            <dia:string>#Ship
Hold#</dia:string>
          </dia:attribute>
          <dia:attribute name="font">
            <dia:font family="sans" style="0" name="Helvetica"/>
          </dia:attribute>
          <dia:attribute name="height">
            <dia:real val="0.63499997556209564"/>
          </dia:attribute>
          <dia:attribute name="pos">
            <dia:point val="-2,11.3375"/>
          </dia:attribute>
          <dia:attribute name="color">
            <dia:color val="#000000ff"/>
          </dia:attribute>
          <dia:attribute name="alignment">
            <dia:enum val="1"/>
          </dia:attribute>
        </dia:composite>
      </dia:attribute>
    </dia:object>
    <dia:object type="Standard - Line" version="0" id="O6">
      <dia:attribute name="obj_pos">
        <dia:point val="3,11.5"/>
      </dia:attribute>
      <dia:attribute name="obj_bb">
        <dia:rectangle val="-0.05,11.45;3.05,11.55"/>
      </dia:attribute>
      <dia:attribute name="conn_endpoints">
        <dia:point val="3,11.5"/>
        <dia:point val="0,11.5"/>
      </dia:attribute>
      <dia:attribute name="numcp">
        <dia:int val="1"/>
      </dia:attribute>
      <dia:connections>
        <dia:connection handle="0" to="O3" connection="7"/>
        <dia:connection handle="1" to="O5" connection="8"/>
      </dia:connections>
    </dia:object>
    <dia:object type="Standard - Text" version="1" id="O7">
      <dia:attribute name="obj_pos">
        <dia:point val="-1,14"/>
      </dia:attribute>
      <dia:attribute name="obj_bb">
        <dia:rectangle val="-1,13.6325;1.4625,15.0828"/>
      </dia:attribute>
      <dia:attribute name="text">
        <dia:composite type="text">
          <dia:attribute name="string">
            <dia:string>#pallets
packages
    star pistol#</dia:string>
          </dia:attribute>
          <dia:attribute name="font">
            <dia:font family="sans" style="0" name="Helvetica"/>
          </dia:attribute>
          <dia:attribute name="height">
            <dia:real val="0.49388886988162994"/>
          </dia:attribute>
          <dia:attribute name="pos">
            <dia:point val="-1,14"/>
          </dia:attribute>
          <dia:attribute name="color">
            <dia:color val="#000000ff"/>
          </dia:attribute>
          <dia:attribute name="alignment">
            <dia:enum val="0"/>
          </dia:attribute>
        </dia:composite>
      </dia:attribute>
      <dia:attribute name="valign">
        <dia:enum val="3"/>
      </dia:attribute>
    </dia:object>
    <dia:object type="Standard - Line" version="0" id="O8">
      <dia:attribute name="obj_pos">
        <dia:point val="-4,11.5"/>
      </dia:attribute>
      <dia:attribute name="obj_bb">
        <dia:rectangle val="-7.05,11.45;-3.95,11.55"/>
      </dia:attribute>
      <dia:attribute name="conn_endpoints">
        <dia:point val="-4,11.5"/>
        <dia:point val="-7,11.5"/>
      </dia:attribute>
      <dia:attribute name="numcp">
        <dia:int val="1"/>
      </dia:attribute>
      <dia:connections>
        <dia:connection handle="0" to="O5" connection="7"/>
        <dia:connection handle="1" to="O9" connection="8"/>
      </dia:connections>
    </dia:object>
    <dia:object type="Flowchart - Box" version="0" id="O9">
      <dia:attribute name="obj_pos">
        <dia:point val="-11,10"/>
      </dia:attribute>
      <dia:attribute name="obj_bb">
        <dia:rectangle val="-11.05,9.95;-6.95,13.05"/>
      </dia:attribute>
      <dia:attribute name="elem_corner">
        <dia:point val="-11,10"/>
      </dia:attribute>
      <dia:attribute name="elem_width">
        <dia:real val="4"/>
      </dia:attribute>
      <dia:attribute name="elem_height">
        <dia:real val="3"/>
      </dia:attribute>
      <dia:attribute name="show_background">
        <dia:boolean val="true"/>
      </dia:attribute>
      <dia:attribute name="padding">
        <dia:real val="0.5"/>
      </dia:attribute>
      <dia:attribute name="text">
        <dia:composite type="text">
          <dia:attribute name="string">
            <dia:string>#Monitoring#</dia:string>
          </dia:attribute>
          <dia:attribute name="font">
            <dia:font family="sans" style="0" name="Helvetica"/>
          </dia:attribute>
          <dia:attribute name="height">
            <dia:real val="0.63499997556209564"/>
          </dia:attribute>
          <dia:attribute name="pos">
            <dia:point val="-9,11.655"/>
          </dia:attribute>
          <dia:attribute name="color">
            <dia:color val="#000000ff"/>
          </dia:attribute>
          <dia:attribute name="alignment">
            <dia:enum val="1"/>
          </dia:attribute>
        </dia:composite>
      </dia:attribute>
    </dia:object>
    <dia:object type="Flowchart - Box" version="0" id="O10">
      <dia:attribute name="obj_pos">
        <dia:point val="-18,9.9975"/>
      </dia:attribute>
      <dia:attribute name="obj_bb">
        <dia:rectangle val="-18.05,9.9475;-13.95,13.0525"/>
      </dia:attribute>
      <dia:attribute name="elem_corner">
        <dia:point val="-18,9.9975"/>
      </dia:attribute>
      <dia:attribute name="elem_width">
        <dia:real val="4"/>
      </dia:attribute>
      <dia:attribute name="elem_height">
        <dia:real val="3.004999926686287"/>
      </dia:attribute>
      <dia:attribute name="show_background">
        <dia:boolean val="true"/>
      </dia:attribute>
      <dia:attribute name="padding">
        <dia:real val="0.5"/>
      </dia:attribute>
      <dia:attribute name="text">
        <dia:composite type="text">
          <dia:attribute name="string">
            <dia:string>#Before
the
Airlock#</dia:string>
          </dia:attribute>
          <dia:attribute name="font">
            <dia:font family="sans" style="0" name="Helvetica"/>
          </dia:attribute>
          <dia:attribute name="height">
            <dia:real val="0.63499997556209564"/>
          </dia:attribute>
          <dia:attribute name="pos">
            <dia:point val="-16,11.02"/>
          </dia:attribute>
          <dia:attribute name="color">
            <dia:color val="#000000ff"/>
          </dia:attribute>
          <dia:attribute name="alignment">
            <dia:enum val="1"/>
          </dia:attribute>
        </dia:composite>
      </dia:attribute>
    </dia:object>
    <dia:object type="Standard - Line" version="0" id="O11">
      <dia:attribute name="obj_pos">
        <dia:point val="-11,11.5"/>
      </dia:attribute>
      <dia:attribute name="obj_bb">
        <dia:rectangle val="-14.05,11.45;-10.95,11.55"/>
      </dia:attribute>
      <dia:attribute name="conn_endpoints">
        <dia:point val="-11,11.5"/>
        <dia:point val="-14,11.5"/>
      </dia:attribute>
      <dia:attribute name="numcp">
        <dia:int val="1"/>
      </dia:attribute>
      <dia:connections>
        <dia:connection handle="0" to="O9" connection="7"/>
        <dia:connection handle="1" to="O10" connection="8"/>
      </dia:connections>
    </dia:object>
    <dia:object type="Standard - Text" version="1" id="O12">
      <dia:attribute name="obj_pos">
        <dia:point val="-15,14"/>
      </dia:attribute>
      <dia:attribute name="obj_bb">
        <dia:rectangle val="-15,13.6325;-12.74,15.5767"/>
      </dia:attribute>
      <dia:attribute name="text">
        <dia:composite type="text">
          <dia:attribute name="string">
            <dia:string>#Mr Mailx
Alexandra
McGrathley
werewolf#</dia:string>
          </dia:attribute>
          <dia:attribute name="font">
            <dia:font family="sans" style="0" name="Helvetica"/>
          </dia:attribute>
          <dia:attribute name="height">
            <dia:real val="0.49388886988162994"/>
          </dia:attribute>
          <dia:attribute name="pos">
            <dia:point val="-15,14"/>
          </dia:attribute>
          <dia:attribute name="color">
            <dia:color val="#000000ff"/>
          </dia:attribute>
          <dia:attribute name="alignment">
            <dia:enum val="0"/>
          </dia:attribute>
        </dia:composite>
      </dia:attribute>
      <dia:attribute name="valign">
        <dia:enum val="3"/>
      </dia:attribute>
    </dia:object>
    <dia:object type="Flowchart - Box" version="0" id="O13">
      <dia:attribute name="obj_pos">
        <dia:point val="-4,-2"/>
      </dia:attribute>
      <dia:attribute name="obj_bb">
        <dia:rectangle val="-4.05,-2.05;0.05,1.05"/>
      </dia:attribute>
      <dia:attribute name="elem_corner">
        <dia:point val="-4,-2"/>
      </dia:attribute>
      <dia:attribute name="elem_width">
        <dia:real val="4"/>
      </dia:attribute>
      <dia:attribute name="elem_height">
        <dia:real val="3"/>
      </dia:attribute>
      <dia:attribute name="show_background">
        <dia:boolean val="true"/>
      </dia:attribute>
      <dia:attribute name="padding">
        <dia:real val="0.5"/>
      </dia:attribute>
      <dia:attribute name="text">
        <dia:composite type="text">
          <dia:attribute name="string">
            <dia:string>#Bridge#</dia:string>
          </dia:attribute>
          <dia:attribute name="font">
            <dia:font family="sans" style="0" name="Helvetica"/>
          </dia:attribute>
          <dia:attribute name="height">
            <dia:real val="0.63499997556209564"/>
          </dia:attribute>
          <dia:attribute name="pos">
            <dia:point val="-2,-0.345"/>
          </dia:attribute>
          <dia:attribute name="color">
            <dia:color val="#000000ff"/>
          </dia:attribute>
          <dia:attribute name="alignment">
            <dia:enum val="1"/>
          </dia:attribute>
        </dia:composite>
      </dia:attribute>
    </dia:object>
    <dia:object type="Flowchart - Box" version="0" id="O14">
      <dia:attribute name="obj_pos">
        <dia:point val="-4,-8.0025"/>
      </dia:attribute>
      <dia:attribute name="obj_bb">
        <dia:rectangle val="-4.05,-8.0525;0.05,-4.9475"/>
      </dia:attribute>
      <dia:attribute name="elem_corner">
        <dia:point val="-4,-8.0025"/>
      </dia:attribute>
      <dia:attribute name="elem_width">
        <dia:real val="4"/>
      </dia:attribute>
      <dia:attribute name="elem_height">
        <dia:real val="3.004999926686287"/>
      </dia:attribute>
      <dia:attribute name="show_background">
        <dia:boolean val="true"/>
      </dia:attribute>
      <dia:attribute name="padding">
        <dia:real val="0.5"/>
      </dia:attribute>
      <dia:attribute name="text">
        <dia:composite type="text">
          <dia:attribute name="string">
            <dia:string>#Port
Side
Hallway#</dia:string>
          </dia:attribute>
          <dia:attribute name="font">
            <dia:font family="sans" style="0" name="Helvetica"/>
          </dia:attribute>
          <dia:attribute name="height">
            <dia:real val="0.63499997556209564"/>
          </dia:attribute>
          <dia:attribute name="pos">
            <dia:point val="-2,-6.98"/>
          </dia:attribute>
          <dia:attribute name="color">
            <dia:color val="#000000ff"/>
          </dia:attribute>
          <dia:attribute name="alignment">
            <dia:enum val="1"/>
          </dia:attribute>
        </dia:composite>
      </dia:attribute>
    </dia:object>
    <dia:object type="Standard - Line" version="0" id="O15">
      <dia:attribute name="obj_pos">
        <dia:point val="-2,-2"/>
      </dia:attribute>
      <dia:attribute name="obj_bb">
        <dia:rectangle val="-2.05,-5.0475;-1.95,-1.95"/>
      </dia:attribute>
      <dia:attribute name="conn_endpoints">
        <dia:point val="-2,-2"/>
        <dia:point val="-2,-4.9975"/>
      </dia:attribute>
      <dia:attribute name="numcp">
        <dia:int val="1"/>
      </dia:attribute>
      <dia:connections>
        <dia:connection handle="0" to="O13" connection="2"/>
        <dia:connection handle="1" to="O14" connection="13"/>
      </dia:connections>
    </dia:object>
    <dia:object type="Flowchart - Box" version="0" id="O16">
      <dia:attribute name="obj_pos">
        <dia:point val="-4,-14"/>
      </dia:attribute>
      <dia:attribute name="obj_bb">
        <dia:rectangle val="-4.05,-14.05;0.05,-10.95"/>
      </dia:attribute>
      <dia:attribute name="elem_corner">
        <dia:point val="-4,-14"/>
      </dia:attribute>
      <dia:attribute name="elem_width">
        <dia:real val="4"/>
      </dia:attribute>
      <dia:attribute name="elem_height">
        <dia:real val="3"/>
      </dia:attribute>
      <dia:attribute name="show_background">
        <dia:boolean val="true"/>
      </dia:attribute>
      <dia:attribute name="padding">
        <dia:real val="0.5"/>
      </dia:attribute>
      <dia:attribute name="text">
        <dia:composite type="text">
          <dia:attribute name="string">
            <dia:string>#PortSide
Hallway#</dia:string>
          </dia:attribute>
          <dia:attribute name="font">
            <dia:font family="sans" style="0" name="Helvetica"/>
          </dia:attribute>
          <dia:attribute name="height">
            <dia:real val="0.63499997556209564"/>
          </dia:attribute>
          <dia:attribute name="pos">
            <dia:point val="-2,-12.6625"/>
          </dia:attribute>
          <dia:attribute name="color">
            <dia:color val="#000000ff"/>
          </dia:attribute>
          <dia:attribute name="alignment">
            <dia:enum val="1"/>
          </dia:attribute>
        </dia:composite>
      </dia:attribute>
    </dia:object>
    <dia:object type="Standard - Line" version="0" id="O17">
      <dia:attribute name="obj_pos">
        <dia:point val="-2,-8.0025"/>
      </dia:attribute>
      <dia:attribute name="obj_bb">
        <dia:rectangle val="-2.05,-11.05;-1.95,-7.9525"/>
      </dia:attribute>
      <dia:attribute name="conn_endpoints">
        <dia:point val="-2,-8.0025"/>
        <dia:point val="-2,-11"/>
      </dia:attribute>
      <dia:attribute name="numcp">
        <dia:int val="1"/>
      </dia:attribute>
      <dia:connections>
        <dia:connection handle="0" to="O14" connection="2"/>
        <dia:connection handle="1" to="O16" connection="13"/>
      </dia:connections>
    </dia:object>
    <dia:object type="Flowchart - Box" version="0" id="O18">
      <dia:attribute name="obj_pos">
        <dia:point val="-4,-20.0025"/>
      </dia:attribute>
      <dia:attribute name="obj_bb">
        <dia:rectangle val="-4.05,-20.0525;0.05,-16.9475"/>
      </dia:attribute>
      <dia:attribute name="elem_corner">
        <dia:point val="-4,-20.0025"/>
      </dia:attribute>
      <dia:attribute name="elem_width">
        <dia:real val="4"/>
      </dia:attribute>
      <dia:attribute name="elem_height">
        <dia:real val="3.004999926686287"/>
      </dia:attribute>
      <dia:attribute name="show_background">
        <dia:boolean val="true"/>
      </dia:attribute>
      <dia:attribute name="padding">
        <dia:real val="0.5"/>
      </dia:attribute>
      <dia:attribute name="text">
        <dia:composite type="text">
          <dia:attribute name="string">
            <dia:string>#Before
the
Airlock#</dia:string>
          </dia:attribute>
          <dia:attribute name="font">
            <dia:font family="sans" style="0" name="Helvetica"/>
          </dia:attribute>
          <dia:attribute name="height">
            <dia:real val="0.63499997556209564"/>
          </dia:attribute>
          <dia:attribute name="pos">
            <dia:point val="-2,-18.98"/>
          </dia:attribute>
          <dia:attribute name="color">
            <dia:color val="#000000ff"/>
          </dia:attribute>
          <dia:attribute name="alignment">
            <dia:enum val="1"/>
          </dia:attribute>
        </dia:composite>
      </dia:attribute>
    </dia:object>
    <dia:object type="Standard - Line" version="0" id="O19">
      <dia:attribute name="obj_pos">
        <dia:point val="-2,-16.9975"/>
      </dia:attribute>
      <dia:attribute name="obj_bb">
        <dia:rectangle val="-2.05,-17.0475;-1.95,-13.95"/>
      </dia:attribute>
      <dia:attribute name="conn_endpoints">
        <dia:point val="-2,-16.9975"/>
        <dia:point val="-2,-14"/>
      </dia:attribute>
      <dia:attribute name="numcp">
        <dia:int val="1"/>
      </dia:attribute>
      <dia:connections>
        <dia:connection handle="0" to="O18" connection="13"/>
        <dia:connection handle="1" to="O16" connection="2"/>
      </dia:connections>
    </dia:object>
    <dia:object type="Standard - Text" version="1" id="O20">
      <dia:attribute name="obj_pos">
        <dia:point val="-1,-16"/>
      </dia:attribute>
      <dia:attribute name="obj_bb">
        <dia:rectangle val="-1,-16.3675;1.5925,-14.9172"/>
      </dia:attribute>
      <dia:attribute name="text">
        <dia:composite type="text">
          <dia:attribute name="string">
            <dia:string>#green button
red button
control panel#</dia:string>
          </dia:attribute>
          <dia:attribute name="font">
            <dia:font family="sans" style="0" name="Helvetica"/>
          </dia:attribute>
          <dia:attribute name="height">
            <dia:real val="0.49388886988162994"/>
          </dia:attribute>
          <dia:attribute name="pos">
            <dia:point val="-1,-16"/>
          </dia:attribute>
          <dia:attribute name="color">
            <dia:color val="#000000ff"/>
          </dia:attribute>
          <dia:attribute name="alignment">
            <dia:enum val="0"/>
          </dia:attribute>
        </dia:composite>
      </dia:attribute>
      <dia:attribute name="valign">
        <dia:enum val="3"/>
      </dia:attribute>
    </dia:object>
    <dia:object type="Flowchart - Box" version="0" id="O21">
      <dia:attribute name="obj_pos">
        <dia:point val="-4,-32"/>
      </dia:attribute>
      <dia:attribute name="obj_bb">
        <dia:rectangle val="-4.05,-32.05;0.05,-28.945"/>
      </dia:attribute>
      <dia:attribute name="elem_corner">
        <dia:point val="-4,-32"/>
      </dia:attribute>
      <dia:attribute name="elem_width">
        <dia:real val="4"/>
      </dia:attribute>
      <dia:attribute name="elem_height">
        <dia:real val="3.004999926686287"/>
      </dia:attribute>
      <dia:attribute name="show_background">
        <dia:boolean val="true"/>
      </dia:attribute>
      <dia:attribute name="padding">
        <dia:real val="0.5"/>
      </dia:attribute>
      <dia:attribute name="text">
        <dia:composite type="text">
          <dia:attribute name="string">
            <dia:string>#Outside
the
Plagoo#</dia:string>
          </dia:attribute>
          <dia:attribute name="font">
            <dia:font family="sans" style="0" name="Helvetica"/>
          </dia:attribute>
          <dia:attribute name="height">
            <dia:real val="0.63499997556209564"/>
          </dia:attribute>
          <dia:attribute name="pos">
            <dia:point val="-2,-30.9775"/>
          </dia:attribute>
          <dia:attribute name="color">
            <dia:color val="#000000ff"/>
          </dia:attribute>
          <dia:attribute name="alignment">
            <dia:enum val="1"/>
          </dia:attribute>
        </dia:composite>
      </dia:attribute>
    </dia:object>
    <dia:object type="Flowchart - Box" version="0" id="O22">
      <dia:attribute name="obj_pos">
        <dia:point val="3,-32"/>
      </dia:attribute>
      <dia:attribute name="obj_bb">
        <dia:rectangle val="2.95,-32.05;7.05,-28.95"/>
      </dia:attribute>
      <dia:attribute name="elem_corner">
        <dia:point val="3,-32"/>
      </dia:attribute>
      <dia:attribute name="elem_width">
        <dia:real val="4"/>
      </dia:attribute>
      <dia:attribute name="elem_height">
        <dia:real val="3"/>
      </dia:attribute>
      <dia:attribute name="show_background">
        <dia:boolean val="true"/>
      </dia:attribute>
      <dia:attribute name="padding">
        <dia:real val="0.5"/>
      </dia:attribute>
      <dia:attribute name="text">
        <dia:composite type="text">
          <dia:attribute name="string">
            <dia:string>#Snowy
Path#</dia:string>
          </dia:attribute>
          <dia:attribute name="font">
            <dia:font family="sans" style="0" name="Helvetica"/>
          </dia:attribute>
          <dia:attribute name="height">
            <dia:real val="0.63499997556209564"/>
          </dia:attribute>
          <dia:attribute name="pos">
            <dia:point val="5,-30.6625"/>
          </dia:attribute>
          <dia:attribute name="color">
            <dia:color val="#000000ff"/>
          </dia:attribute>
          <dia:attribute name="alignment">
            <dia:enum val="1"/>
          </dia:attribute>
        </dia:composite>
      </dia:attribute>
    </dia:object>
    <dia:object type="Standard - Line" version="0" id="O23">
      <dia:attribute name="obj_pos">
        <dia:point val="0,-30.4975"/>
      </dia:attribute>
      <dia:attribute name="obj_bb">
        <dia:rectangle val="-0.0500416,-30.55;3.05004,-30.4475"/>
      </dia:attribute>
      <dia:attribute name="conn_endpoints">
        <dia:point val="0,-30.4975"/>
        <dia:point val="3,-30.5"/>
      </dia:attribute>
      <dia:attribute name="numcp">
        <dia:int val="1"/>
      </dia:attribute>
      <dia:connections>
        <dia:connection handle="0" to="O21" connection="8"/>
        <dia:connection handle="1" to="O22" connection="7"/>
      </dia:connections>
    </dia:object>
    <dia:object type="Flowchart - Box" version="0" id="O24">
      <dia:attribute name="obj_pos">
        <dia:point val="10,-32"/>
      </dia:attribute>
      <dia:attribute name="obj_bb">
        <dia:rectangle val="9.95,-32.05;14.05,-28.95"/>
      </dia:attribute>
      <dia:attribute name="elem_corner">
        <dia:point val="10,-32"/>
      </dia:attribute>
      <dia:attribute name="elem_width">
        <dia:real val="4"/>
      </dia:attribute>
      <dia:attribute name="elem_height">
        <dia:real val="3"/>
      </dia:attribute>
      <dia:attribute name="show_background">
        <dia:boolean val="true"/>
      </dia:attribute>
      <dia:attribute name="padding">
        <dia:real val="0.5"/>
      </dia:attribute>
      <dia:attribute name="text">
        <dia:composite type="text">
          <dia:attribute name="string">
            <dia:string>#Snowy
Path#</dia:string>
          </dia:attribute>
          <dia:attribute name="font">
            <dia:font family="sans" style="0" name="Helvetica"/>
          </dia:attribute>
          <dia:attribute name="height">
            <dia:real val="0.63499997556209564"/>
          </dia:attribute>
          <dia:attribute name="pos">
            <dia:point val="12,-30.6625"/>
          </dia:attribute>
          <dia:attribute name="color">
            <dia:color val="#000000ff"/>
          </dia:attribute>
          <dia:attribute name="alignment">
            <dia:enum val="1"/>
          </dia:attribute>
        </dia:composite>
      </dia:attribute>
    </dia:object>
    <dia:object type="Standard - Line" version="0" id="O25">
      <dia:attribute name="obj_pos">
        <dia:point val="7.04102,-30.5"/>
      </dia:attribute>
      <dia:attribute name="obj_bb">
        <dia:rectangle val="6.99102,-30.55;10.05,-30.45"/>
      </dia:attribute>
      <dia:attribute name="conn_endpoints">
        <dia:point val="7.04102,-30.5"/>
        <dia:point val="10,-30.5"/>
      </dia:attribute>
      <dia:attribute name="numcp">
        <dia:int val="1"/>
      </dia:attribute>
      <dia:connections>
        <dia:connection handle="0" to="O22" connection="16"/>
        <dia:connection handle="1" to="O24" connection="7"/>
      </dia:connections>
    </dia:object>
    <dia:object type="Flowchart - Box" version="0" id="O26">
      <dia:attribute name="obj_pos">
        <dia:point val="17,-32"/>
      </dia:attribute>
      <dia:attribute name="obj_bb">
        <dia:rectangle val="16.95,-32.05;21.05,-28.95"/>
      </dia:attribute>
      <dia:attribute name="elem_corner">
        <dia:point val="17,-32"/>
      </dia:attribute>
      <dia:attribute name="elem_width">
        <dia:real val="4"/>
      </dia:attribute>
      <dia:attribute name="elem_height">
        <dia:real val="3"/>
      </dia:attribute>
      <dia:attribute name="show_background">
        <dia:boolean val="true"/>
      </dia:attribute>
      <dia:attribute name="padding">
        <dia:real val="0.5"/>
      </dia:attribute>
      <dia:attribute name="text">
        <dia:composite type="text">
          <dia:attribute name="string">
            <dia:string>#Snowy
Path#</dia:string>
          </dia:attribute>
          <dia:attribute name="font">
            <dia:font family="sans" style="0" name="Helvetica"/>
          </dia:attribute>
          <dia:attribute name="height">
            <dia:real val="0.63499997556209564"/>
          </dia:attribute>
          <dia:attribute name="pos">
            <dia:point val="19,-30.6625"/>
          </dia:attribute>
          <dia:attribute name="color">
            <dia:color val="#000000ff"/>
          </dia:attribute>
          <dia:attribute name="alignment">
            <dia:enum val="1"/>
          </dia:attribute>
        </dia:composite>
      </dia:attribute>
    </dia:object>
    <dia:object type="Standard - Line" version="0" id="O27">
      <dia:attribute name="obj_pos">
        <dia:point val="14.041,-30.5"/>
      </dia:attribute>
      <dia:attribute name="obj_bb">
        <dia:rectangle val="13.991,-30.55;17.05,-30.45"/>
      </dia:attribute>
      <dia:attribute name="conn_endpoints">
        <dia:point val="14.041,-30.5"/>
        <dia:point val="17,-30.5"/>
      </dia:attribute>
      <dia:attribute name="numcp">
        <dia:int val="1"/>
      </dia:attribute>
      <dia:connections>
        <dia:connection handle="0" to="O24" connection="16"/>
        <dia:connection handle="1" to="O26" connection="7"/>
      </dia:connections>
    </dia:object>
    <dia:object type="Standard - Line" version="0" id="O28">
      <dia:attribute name="obj_pos">
        <dia:point val="21,-30.5"/>
      </dia:attribute>
      <dia:attribute name="obj_bb">
        <dia:rectangle val="20.95,-30.55;24.05,-30.45"/>
      </dia:attribute>
      <dia:attribute name="conn_endpoints">
        <dia:point val="21,-30.5"/>
        <dia:point val="24,-30.5"/>
      </dia:attribute>
      <dia:attribute name="numcp">
        <dia:int val="1"/>
      </dia:attribute>
      <dia:connections>
        <dia:connection handle="0" to="O26" connection="8"/>
        <dia:connection handle="1" to="O29" connection="7"/>
      </dia:connections>
    </dia:object>
    <dia:object type="Flowchart - Box" version="0" id="O29">
      <dia:attribute name="obj_pos">
        <dia:point val="24,-32.0025"/>
      </dia:attribute>
      <dia:attribute name="obj_bb">
        <dia:rectangle val="23.95,-32.0525;28.05,-28.9475"/>
      </dia:attribute>
      <dia:attribute name="elem_corner">
        <dia:point val="24,-32.0025"/>
      </dia:attribute>
      <dia:attribute name="elem_width">
        <dia:real val="4"/>
      </dia:attribute>
      <dia:attribute name="elem_height">
        <dia:real val="3.004999926686287"/>
      </dia:attribute>
      <dia:attribute name="show_background">
        <dia:boolean val="true"/>
      </dia:attribute>
      <dia:attribute name="padding">
        <dia:real val="0.5"/>
      </dia:attribute>
      <dia:attribute name="text">
        <dia:composite type="text">
          <dia:attribute name="string">
            <dia:string>#Center
of Town#</dia:string>
          </dia:attribute>
          <dia:attribute name="font">
            <dia:font family="sans" style="0" name="Helvetica"/>
          </dia:attribute>
          <dia:attribute name="height">
            <dia:real val="0.63499997556209564"/>
          </dia:attribute>
          <dia:attribute name="pos">
            <dia:point val="26,-30.6625"/>
          </dia:attribute>
          <dia:attribute name="color">
            <dia:color val="#000000ff"/>
          </dia:attribute>
          <dia:attribute name="alignment">
            <dia:enum val="1"/>
          </dia:attribute>
        </dia:composite>
      </dia:attribute>
    </dia:object>
    <dia:object type="Standard - Line" version="0" id="O30">
      <dia:attribute name="obj_pos">
        <dia:point val="26,-28.9975"/>
      </dia:attribute>
      <dia:attribute name="obj_bb">
        <dia:rectangle val="25.95,-29.0475;26.05,-25.9525"/>
      </dia:attribute>
      <dia:attribute name="conn_endpoints">
        <dia:point val="26,-28.9975"/>
        <dia:point val="26,-26.0025"/>
      </dia:attribute>
      <dia:attribute name="numcp">
        <dia:int val="1"/>
      </dia:attribute>
      <dia:connections>
        <dia:connection handle="0" to="O29" connection="13"/>
        <dia:connection handle="1" to="O33" connection="2"/>
      </dia:connections>
    </dia:object>
    <dia:object type="Standard - Line" version="0" id="O31">
      <dia:attribute name="obj_pos">
        <dia:point val="26,-32.0524"/>
      </dia:attribute>
      <dia:attribute name="obj_bb">
        <dia:rectangle val="25.95,-35.05;26.05,-32.0024"/>
      </dia:attribute>
      <dia:attribute name="conn_endpoints">
        <dia:point val="26,-32.0524"/>
        <dia:point val="26,-35"/>
      </dia:attribute>
      <dia:attribute name="numcp">
        <dia:int val="1"/>
      </dia:attribute>
      <dia:attribute name="line_style">
        <dia:enum val="4"/>
      </dia:attribute>
      <dia:connections>
        <dia:connection handle="0" to="O29" connection="16"/>
        <dia:connection handle="1" to="O35" connection="13"/>
      </dia:connections>
    </dia:object>
    <dia:object type="Standard - Text" version="1" id="O32">
      <dia:attribute name="obj_pos">
        <dia:point val="27,-28"/>
      </dia:attribute>
      <dia:attribute name="obj_bb">
        <dia:rectangle val="27,-28.3675;29.36,-27.905"/>
      </dia:attribute>
      <dia:attribute name="text">
        <dia:composite type="text">
          <dia:attribute name="string">
            <dia:string>#snowmobile#</dia:string>
          </dia:attribute>
          <dia:attribute name="font">
            <dia:font family="sans" style="0" name="Helvetica"/>
          </dia:attribute>
          <dia:attribute name="height">
            <dia:real val="0.49388886988162994"/>
          </dia:attribute>
          <dia:attribute name="pos">
            <dia:point val="27,-28"/>
          </dia:attribute>
          <dia:attribute name="color">
            <dia:color val="#000000ff"/>
          </dia:attribute>
          <dia:attribute name="alignment">
            <dia:enum val="0"/>
          </dia:attribute>
        </dia:composite>
      </dia:attribute>
      <dia:attribute name="valign">
        <dia:enum val="3"/>
      </dia:attribute>
    </dia:object>
    <dia:object type="Flowchart - Box" version="0" id="O33">
      <dia:attribute name="obj_pos">
        <dia:point val="24,-26.0025"/>
      </dia:attribute>
      <dia:attribute name="obj_bb">
        <dia:rectangle val="23.95,-26.0525;28.05,-22.9475"/>
      </dia:attribute>
      <dia:attribute name="elem_corner">
        <dia:point val="24,-26.0025"/>
      </dia:attribute>
      <dia:attribute name="elem_width">
        <dia:real val="4"/>
      </dia:attribute>
      <dia:attribute name="elem_height">
        <dia:real val="3.004999926686287"/>
      </dia:attribute>
      <dia:attribute name="show_background">
        <dia:boolean val="true"/>
      </dia:attribute>
      <dia:attribute name="padding">
        <dia:real val="0.5"/>
      </dia:attribute>
      <dia:attribute name="text">
        <dia:composite type="text">
          <dia:attribute name="string">
            <dia:string>#Hot
Sauce
Bar#</dia:string>
          </dia:attribute>
          <dia:attribute name="font">
            <dia:font family="sans" style="0" name="Helvetica"/>
          </dia:attribute>
          <dia:attribute name="height">
            <dia:real val="0.63499997556209564"/>
          </dia:attribute>
          <dia:attribute name="pos">
            <dia:point val="26,-24.98"/>
          </dia:attribute>
          <dia:attribute name="color">
            <dia:color val="#000000ff"/>
          </dia:attribute>
          <dia:attribute name="alignment">
            <dia:enum val="1"/>
          </dia:attribute>
        </dia:composite>
      </dia:attribute>
    </dia:object>
    <dia:object type="Standard - Text" version="1" id="O34">
      <dia:attribute name="obj_pos">
        <dia:point val="27,-22"/>
      </dia:attribute>
      <dia:attribute name="obj_bb">
        <dia:rectangle val="27,-22.3675;30.5625,-20.9172"/>
      </dia:attribute>
      <dia:attribute name="text">
        <dia:composite type="text">
          <dia:attribute name="string">
            <dia:string>#fruit tray
Ultra Death sauce
bartender#</dia:string>
          </dia:attribute>
          <dia:attribute name="font">
            <dia:font family="sans" style="0" name="Helvetica"/>
          </dia:attribute>
          <dia:attribute name="height">
            <dia:real val="0.49388886988162994"/>
          </dia:attribute>
          <dia:attribute name="pos">
            <dia:point val="27,-22"/>
          </dia:attribute>
          <dia:attribute name="color">
            <dia:color val="#000000ff"/>
          </dia:attribute>
          <dia:attribute name="alignment">
            <dia:enum val="0"/>
          </dia:attribute>
        </dia:composite>
      </dia:attribute>
      <dia:attribute name="valign">
        <dia:enum val="3"/>
      </dia:attribute>
    </dia:object>
    <dia:object type="Flowchart - Box" version="0" id="O35">
      <dia:attribute name="obj_pos">
        <dia:point val="24,-38"/>
      </dia:attribute>
      <dia:attribute name="obj_bb">
        <dia:rectangle val="23.95,-38.05;28.05,-34.95"/>
      </dia:attribute>
      <dia:attribute name="elem_corner">
        <dia:point val="24,-38"/>
      </dia:attribute>
      <dia:attribute name="elem_width">
        <dia:real val="4"/>
      </dia:attribute>
      <dia:attribute name="elem_height">
        <dia:real val="3"/>
      </dia:attribute>
      <dia:attribute name="show_background">
        <dia:boolean val="true"/>
      </dia:attribute>
      <dia:attribute name="padding">
        <dia:real val="0.5"/>
      </dia:attribute>
      <dia:attribute name="text">
        <dia:composite type="text">
          <dia:attribute name="string">
            <dia:string>#Mine
Entrance#</dia:string>
          </dia:attribute>
          <dia:attribute name="font">
            <dia:font family="sans" style="0" name="Helvetica"/>
          </dia:attribute>
          <dia:attribute name="height">
            <dia:real val="0.63499997556209564"/>
          </dia:attribute>
          <dia:attribute name="pos">
            <dia:point val="26,-36.6625"/>
          </dia:attribute>
          <dia:attribute name="color">
            <dia:color val="#000000ff"/>
          </dia:attribute>
          <dia:attribute name="alignment">
            <dia:enum val="1"/>
          </dia:attribute>
        </dia:composite>
      </dia:attribute>
    </dia:object>
    <dia:object type="Standard - Text" version="1" id="O36">
      <dia:attribute name="obj_pos">
        <dia:point val="27,-34"/>
      </dia:attribute>
      <dia:attribute name="obj_bb">
        <dia:rectangle val="27,-34.3675;29.01,-33.905"/>
      </dia:attribute>
      <dia:attribute name="text">
        <dia:composite type="text">
          <dia:attribute name="string">
            <dia:string>#mine door#</dia:string>
          </dia:attribute>
          <dia:attribute name="font">
            <dia:font family="sans" style="0" name="Helvetica"/>
          </dia:attribute>
          <dia:attribute name="height">
            <dia:real val="0.49388886988162994"/>
          </dia:attribute>
          <dia:attribute name="pos">
            <dia:point val="27,-34"/>
          </dia:attribute>
          <dia:attribute name="color">
            <dia:color val="#000000ff"/>
          </dia:attribute>
          <dia:attribute name="alignment">
            <dia:enum val="0"/>
          </dia:attribute>
        </dia:composite>
      </dia:attribute>
      <dia:attribute name="valign">
        <dia:enum val="3"/>
      </dia:attribute>
    </dia:object>
    <dia:object type="Flowchart - Box" version="0" id="O37">
      <dia:attribute name="obj_pos">
        <dia:point val="24,-44"/>
      </dia:attribute>
      <dia:attribute name="obj_bb">
        <dia:rectangle val="23.95,-44.05;28.05,-40.95"/>
      </dia:attribute>
      <dia:attribute name="elem_corner">
        <dia:point val="24,-44"/>
      </dia:attribute>
      <dia:attribute name="elem_width">
        <dia:real val="4"/>
      </dia:attribute>
      <dia:attribute name="elem_height">
        <dia:real val="3"/>
      </dia:attribute>
      <dia:attribute name="show_background">
        <dia:boolean val="true"/>
      </dia:attribute>
      <dia:attribute name="padding">
        <dia:real val="0.5"/>
      </dia:attribute>
      <dia:attribute name="text">
        <dia:composite type="text">
          <dia:attribute name="string">
            <dia:string>#Mine#</dia:string>
          </dia:attribute>
          <dia:attribute name="font">
            <dia:font family="sans" style="0" name="Helvetica"/>
          </dia:attribute>
          <dia:attribute name="height">
            <dia:real val="0.63499997556209564"/>
          </dia:attribute>
          <dia:attribute name="pos">
            <dia:point val="26,-42.345"/>
          </dia:attribute>
          <dia:attribute name="color">
            <dia:color val="#000000ff"/>
          </dia:attribute>
          <dia:attribute name="alignment">
            <dia:enum val="1"/>
          </dia:attribute>
        </dia:composite>
      </dia:attribute>
    </dia:object>
    <dia:object type="Standard - Line" version="0" id="O38">
      <dia:attribute name="obj_pos">
        <dia:point val="26,-38"/>
      </dia:attribute>
      <dia:attribute name="obj_bb">
        <dia:rectangle val="25.95,-41.05;26.05,-37.95"/>
      </dia:attribute>
      <dia:attribute name="conn_endpoints">
        <dia:point val="26,-38"/>
        <dia:point val="26,-41"/>
      </dia:attribute>
      <dia:attribute name="numcp">
        <dia:int val="1"/>
      </dia:attribute>
      <dia:connections>
        <dia:connection handle="0" to="O35" connection="2"/>
        <dia:connection handle="1" to="O37" connection="13"/>
      </dia:connections>
    </dia:object>
    <dia:object type="Standard - Text" version="1" id="O39">
      <dia:attribute name="obj_pos">
        <dia:point val="22,-40"/>
      </dia:attribute>
      <dia:attribute name="obj_bb">
        <dia:rectangle val="22,-40.3675;24.795,-39.905"/>
      </dia:attribute>
      <dia:attribute name="text">
        <dia:composite type="text">
          <dia:attribute name="string">
            <dia:string>#wooden beam#</dia:string>
          </dia:attribute>
          <dia:attribute name="font">
            <dia:font family="sans" style="0" name="Helvetica"/>
          </dia:attribute>
          <dia:attribute name="height">
            <dia:real val="0.49388886988162994"/>
          </dia:attribute>
          <dia:attribute name="pos">
            <dia:point val="22,-40"/>
          </dia:attribute>
          <dia:attribute name="color">
            <dia:color val="#000000ff"/>
          </dia:attribute>
          <dia:attribute name="alignment">
            <dia:enum val="0"/>
          </dia:attribute>
        </dia:composite>
      </dia:attribute>
      <dia:attribute name="valign">
        <dia:enum val="3"/>
      </dia:attribute>
    </dia:object>
    <dia:object type="Flowchart - Box" version="0" id="O40">
      <dia:attribute name="obj_pos">
        <dia:point val="31,-38"/>
      </dia:attribute>
      <dia:attribute name="obj_bb">
        <dia:rectangle val="30.95,-38.05;35.05,-34.95"/>
      </dia:attribute>
      <dia:attribute name="elem_corner">
        <dia:point val="31,-38"/>
      </dia:attribute>
      <dia:attribute name="elem_width">
        <dia:real val="4"/>
      </dia:attribute>
      <dia:attribute name="elem_height">
        <dia:real val="3"/>
      </dia:attribute>
      <dia:attribute name="show_background">
        <dia:boolean val="true"/>
      </dia:attribute>
      <dia:attribute name="padding">
        <dia:real val="0.5"/>
      </dia:attribute>
      <dia:attribute name="text">
        <dia:composite type="text">
          <dia:attribute name="string">
            <dia:string>#Mine
Level Two#</dia:string>
          </dia:attribute>
          <dia:attribute name="font">
            <dia:font family="sans" style="0" name="Helvetica"/>
          </dia:attribute>
          <dia:attribute name="height">
            <dia:real val="0.63499997556209564"/>
          </dia:attribute>
          <dia:attribute name="pos">
            <dia:point val="33,-36.6625"/>
          </dia:attribute>
          <dia:attribute name="color">
            <dia:color val="#000000ff"/>
          </dia:attribute>
          <dia:attribute name="alignment">
            <dia:enum val="1"/>
          </dia:attribute>
        </dia:composite>
      </dia:attribute>
    </dia:object>
    <dia:object type="Standard - Line" version="0" id="O41">
      <dia:attribute name="obj_pos">
        <dia:point val="28,-41"/>
      </dia:attribute>
      <dia:attribute name="obj_bb">
        <dia:rectangle val="27.9293,-41.0707;31.0707,-37.9293"/>
      </dia:attribute>
      <dia:attribute name="conn_endpoints">
        <dia:point val="28,-41"/>
        <dia:point val="31,-38"/>
      </dia:attribute>
      <dia:attribute name="numcp">
        <dia:int val="1"/>
      </dia:attribute>
      <dia:connections>
        <dia:connection handle="0" to="O37" connection="15"/>
        <dia:connection handle="1" to="O40" connection="0"/>
      </dia:connections>
    </dia:object>
    <dia:object type="Standard - Text" version="1" id="O42">
      <dia:attribute name="obj_pos">
        <dia:point val="29,-41"/>
      </dia:attribute>
      <dia:attribute name="obj_bb">
        <dia:rectangle val="29,-41.3675;30.065,-40.905"/>
      </dia:attribute>
      <dia:attribute name="text">
        <dia:composite type="text">
          <dia:attribute name="string">
            <dia:string>#down#</dia:string>
          </dia:attribute>
          <dia:attribute name="font">
            <dia:font family="sans" style="0" name="Helvetica"/>
          </dia:attribute>
          <dia:attribute name="height">
            <dia:real val="0.49388886988162994"/>
          </dia:attribute>
          <dia:attribute name="pos">
            <dia:point val="29,-41"/>
          </dia:attribute>
          <dia:attribute name="color">
            <dia:color val="#000000ff"/>
          </dia:attribute>
          <dia:attribute name="alignment">
            <dia:enum val="0"/>
          </dia:attribute>
        </dia:composite>
      </dia:attribute>
      <dia:attribute name="valign">
        <dia:enum val="3"/>
      </dia:attribute>
    </dia:object>
    <dia:object type="Standard - Text" version="1" id="O43">
      <dia:attribute name="obj_pos">
        <dia:point val="30,-38"/>
      </dia:attribute>
      <dia:attribute name="obj_bb">
        <dia:rectangle val="29.5,-38.3675;30,-37.905"/>
      </dia:attribute>
      <dia:attribute name="text">
        <dia:composite type="text">
          <dia:attribute name="string">
            <dia:string>#up#</dia:string>
          </dia:attribute>
          <dia:attribute name="font">
            <dia:font family="sans" style="0" name="Helvetica"/>
          </dia:attribute>
          <dia:attribute name="height">
            <dia:real val="0.49388886988162994"/>
          </dia:attribute>
          <dia:attribute name="pos">
            <dia:point val="30,-38"/>
          </dia:attribute>
          <dia:attribute name="color">
            <dia:color val="#000000ff"/>
          </dia:attribute>
          <dia:attribute name="alignment">
            <dia:enum val="2"/>
          </dia:attribute>
        </dia:composite>
      </dia:attribute>
      <dia:attribute name="valign">
        <dia:enum val="3"/>
      </dia:attribute>
    </dia:object>
    <dia:object type="Flowchart - Box" version="0" id="O44">
      <dia:attribute name="obj_pos">
        <dia:point val="38,-32.0025"/>
      </dia:attribute>
      <dia:attribute name="obj_bb">
        <dia:rectangle val="37.95,-32.0525;42.05,-28.9475"/>
      </dia:attribute>
      <dia:attribute name="elem_corner">
        <dia:point val="38,-32.0025"/>
      </dia:attribute>
      <dia:attribute name="elem_width">
        <dia:real val="4"/>
      </dia:attribute>
      <dia:attribute name="elem_height">
        <dia:real val="3.004999926686287"/>
      </dia:attribute>
      <dia:attribute name="show_background">
        <dia:boolean val="true"/>
      </dia:attribute>
      <dia:attribute name="padding">
        <dia:real val="0.5"/>
      </dia:attribute>
      <dia:attribute name="text">
        <dia:composite type="text">
          <dia:attribute name="string">
            <dia:string>#Mine
Level
Three#</dia:string>
          </dia:attribute>
          <dia:attribute name="font">
            <dia:font family="sans" style="0" name="Helvetica"/>
          </dia:attribute>
          <dia:attribute name="height">
            <dia:real val="0.63499997556209564"/>
          </dia:attribute>
          <dia:attribute name="pos">
            <dia:point val="40,-30.98"/>
          </dia:attribute>
          <dia:attribute name="color">
            <dia:color val="#000000ff"/>
          </dia:attribute>
          <dia:attribute name="alignment">
            <dia:enum val="1"/>
          </dia:attribute>
        </dia:composite>
      </dia:attribute>
    </dia:object>
    <dia:object type="Standard - Line" version="0" id="O45">
      <dia:attribute name="obj_pos">
        <dia:point val="35,-35"/>
      </dia:attribute>
      <dia:attribute name="obj_bb">
        <dia:rectangle val="34.9293,-35.0707;38.0707,-31.9318"/>
      </dia:attribute>
      <dia:attribute name="conn_endpoints">
        <dia:point val="35,-35"/>
        <dia:point val="38,-32.0025"/>
      </dia:attribute>
      <dia:attribute name="numcp">
        <dia:int val="1"/>
      </dia:attribute>
      <dia:connections>
        <dia:connection handle="0" to="O40" connection="15"/>
        <dia:connection handle="1" to="O44" connection="0"/>
      </dia:connections>
    </dia:object>
    <dia:object type="Standard - Text" version="1" id="O46">
      <dia:attribute name="obj_pos">
        <dia:point val="36,-35"/>
      </dia:attribute>
      <dia:attribute name="obj_bb">
        <dia:rectangle val="36,-35.3675;37.065,-34.905"/>
      </dia:attribute>
      <dia:attribute name="text">
        <dia:composite type="text">
          <dia:attribute name="string">
            <dia:string>#down#</dia:string>
          </dia:attribute>
          <dia:attribute name="font">
            <dia:font family="sans" style="0" name="Helvetica"/>
          </dia:attribute>
          <dia:attribute name="height">
            <dia:real val="0.49388886988162994"/>
          </dia:attribute>
          <dia:attribute name="pos">
            <dia:point val="36,-35"/>
          </dia:attribute>
          <dia:attribute name="color">
            <dia:color val="#000000ff"/>
          </dia:attribute>
          <dia:attribute name="alignment">
            <dia:enum val="0"/>
          </dia:attribute>
        </dia:composite>
      </dia:attribute>
      <dia:attribute name="valign">
        <dia:enum val="3"/>
      </dia:attribute>
    </dia:object>
    <dia:object type="Standard - Text" version="1" id="O47">
      <dia:attribute name="obj_pos">
        <dia:point val="37,-32"/>
      </dia:attribute>
      <dia:attribute name="obj_bb">
        <dia:rectangle val="36.5,-32.3675;37,-31.905"/>
      </dia:attribute>
      <dia:attribute name="text">
        <dia:composite type="text">
          <dia:attribute name="string">
            <dia:string>#up#</dia:string>
          </dia:attribute>
          <dia:attribute name="font">
            <dia:font family="sans" style="0" name="Helvetica"/>
          </dia:attribute>
          <dia:attribute name="height">
            <dia:real val="0.49388886988162994"/>
          </dia:attribute>
          <dia:attribute name="pos">
            <dia:point val="37,-32"/>
          </dia:attribute>
          <dia:attribute name="color">
            <dia:color val="#000000ff"/>
          </dia:attribute>
          <dia:attribute name="alignment">
            <dia:enum val="2"/>
          </dia:attribute>
        </dia:composite>
      </dia:attribute>
      <dia:attribute name="valign">
        <dia:enum val="3"/>
      </dia:attribute>
    </dia:object>
    <dia:object type="Flowchart - Box" version="0" id="O48">
      <dia:attribute name="obj_pos">
        <dia:point val="45,-32"/>
      </dia:attribute>
      <dia:attribute name="obj_bb">
        <dia:rectangle val="44.95,-32.05;49.05,-28.95"/>
      </dia:attribute>
      <dia:attribute name="elem_corner">
        <dia:point val="45,-32"/>
      </dia:attribute>
      <dia:attribute name="elem_width">
        <dia:real val="4"/>
      </dia:attribute>
      <dia:attribute name="elem_height">
        <dia:real val="3"/>
      </dia:attribute>
      <dia:attribute name="show_background">
        <dia:boolean val="true"/>
      </dia:attribute>
      <dia:attribute name="padding">
        <dia:real val="0.5"/>
      </dia:attribute>
      <dia:attribute name="text">
        <dia:composite type="text">
          <dia:attribute name="string">
            <dia:string>#Bottom
of Mine#</dia:string>
          </dia:attribute>
          <dia:attribute name="font">
            <dia:font family="sans" style="0" name="Helvetica"/>
          </dia:attribute>
          <dia:attribute name="height">
            <dia:real val="0.63499997556209564"/>
          </dia:attribute>
          <dia:attribute name="pos">
            <dia:point val="47,-30.6625"/>
          </dia:attribute>
          <dia:attribute name="color">
            <dia:color val="#000000ff"/>
          </dia:attribute>
          <dia:attribute name="alignment">
            <dia:enum val="1"/>
          </dia:attribute>
        </dia:composite>
      </dia:attribute>
    </dia:object>
    <dia:object type="Standard - Line" version="0" id="O49">
      <dia:attribute name="obj_pos">
        <dia:point val="42,-30.5"/>
      </dia:attribute>
      <dia:attribute name="obj_bb">
        <dia:rectangle val="41.95,-30.55;45.05,-30.45"/>
      </dia:attribute>
      <dia:attribute name="conn_endpoints">
        <dia:point val="42,-30.5"/>
        <dia:point val="45,-30.5"/>
      </dia:attribute>
      <dia:attribute name="numcp">
        <dia:int val="1"/>
      </dia:attribute>
      <dia:connections>
        <dia:connection handle="0" to="O44" connection="8"/>
        <dia:connection handle="1" to="O48" connection="7"/>
      </dia:connections>
    </dia:object>
    <dia:object type="Standard - Text" version="1" id="O50">
      <dia:attribute name="obj_pos">
        <dia:point val="48,-28"/>
      </dia:attribute>
      <dia:attribute name="obj_bb">
        <dia:rectangle val="48,-28.3675;49.83,-27.4111"/>
      </dia:attribute>
      <dia:attribute name="text">
        <dia:composite type="text">
          <dia:attribute name="string">
            <dia:string>#boulder
silver ore#</dia:string>
          </dia:attribute>
          <dia:attribute name="font">
            <dia:font family="sans" style="0" name="Helvetica"/>
          </dia:attribute>
          <dia:attribute name="height">
            <dia:real val="0.49388886988162994"/>
          </dia:attribute>
          <dia:attribute name="pos">
            <dia:point val="48,-28"/>
          </dia:attribute>
          <dia:attribute name="color">
            <dia:color val="#000000ff"/>
          </dia:attribute>
          <dia:attribute name="alignment">
            <dia:enum val="0"/>
          </dia:attribute>
        </dia:composite>
      </dia:attribute>
      <dia:attribute name="valign">
        <dia:enum val="3"/>
      </dia:attribute>
    </dia:object>
    <dia:object type="Standard - Text" version="1" id="O51">
      <dia:attribute name="obj_pos">
        <dia:point val="41,-28"/>
      </dia:attribute>
      <dia:attribute name="obj_bb">
        <dia:rectangle val="41,-28.3675;42.89,-27.905"/>
      </dia:attribute>
      <dia:attribute name="text">
        <dia:composite type="text">
          <dia:attribute name="string">
            <dia:string>#mine cart#</dia:string>
          </dia:attribute>
          <dia:attribute name="font">
            <dia:font family="sans" style="0" name="Helvetica"/>
          </dia:attribute>
          <dia:attribute name="height">
            <dia:real val="0.49388886988162994"/>
          </dia:attribute>
          <dia:attribute name="pos">
            <dia:point val="41,-28"/>
          </dia:attribute>
          <dia:attribute name="color">
            <dia:color val="#000000ff"/>
          </dia:attribute>
          <dia:attribute name="alignment">
            <dia:enum val="0"/>
          </dia:attribute>
        </dia:composite>
      </dia:attribute>
      <dia:attribute name="valign">
        <dia:enum val="3"/>
      </dia:attribute>
    </dia:object>
    <dia:object type="Flowchart - Box" version="0" id="O52">
      <dia:attribute name="obj_pos">
        <dia:point val="-4,22"/>
      </dia:attribute>
      <dia:attribute name="obj_bb">
        <dia:rectangle val="-4.05,21.95;0.05,25.05"/>
      </dia:attribute>
      <dia:attribute name="elem_corner">
        <dia:point val="-4,22"/>
      </dia:attribute>
      <dia:attribute name="elem_width">
        <dia:real val="4"/>
      </dia:attribute>
      <dia:attribute name="elem_height">
        <dia:real val="3"/>
      </dia:attribute>
      <dia:attribute name="show_background">
        <dia:boolean val="true"/>
      </dia:attribute>
      <dia:attribute name="padding">
        <dia:real val="0.5"/>
      </dia:attribute>
      <dia:attribute name="text">
        <dia:composite type="text">
          <dia:attribute name="string">
            <dia:string>#Rec
Room#</dia:string>
          </dia:attribute>
          <dia:attribute name="font">
            <dia:font family="sans" style="0" name="Helvetica"/>
          </dia:attribute>
          <dia:attribute name="height">
            <dia:real val="0.63499997556209564"/>
          </dia:attribute>
          <dia:attribute name="pos">
            <dia:point val="-2,23.3375"/>
          </dia:attribute>
          <dia:attribute name="color">
            <dia:color val="#000000ff"/>
          </dia:attribute>
          <dia:attribute name="alignment">
            <dia:enum val="1"/>
          </dia:attribute>
        </dia:composite>
      </dia:attribute>
    </dia:object>
  </dia:layer>
</dia:diagram>
